components/FULL_ADDER/FULL_ADDER_TB.vcd
$date
	Fri May 24 20:17:30 2024
$end
$version
	Icarus Verilog
$end
$timescale
	1ps
$end
$scope module FULL_ADDER_TB $end
$var wire 1 ! L_TB $end
$var wire 1 " H_TB $end
$var reg 1 # A_TB $end
$var reg 1 $ B_TB $end
$var reg 1 % C_TB $end
$scope module DUT $end
$var wire 1 # A $end
$var wire 1 $ B $end
$var wire 1 % C $end
$var wire 1 & Z $end
$var wire 1 ' S0 $end
$var wire 1 ! L $end
$var wire 1 " H $end
$var wire 1 ( C1 $end
$var wire 1 ) C0 $end
$scope module half_adder1 $end
$var wire 1 # A $end
$var wire 1 $ B $end
$var wire 1 ' L $end
$var wire 1 ) H $end
$scope module and_gate $end
$var wire 1 # A $end
$var wire 1 $ B $end
$var wire 1 ) F $end
$var wire 1 * X $end
$upscope $end
$scope module xor_gate $end
$var wire 1 # A $end
$var wire 1 $ B $end
$var wire 1 ' F $end
$var wire 1 + X $end
$var wire 1 , Y $end
$var wire 1 - Z $end
$upscope $end
$upscope $end
$scope module half_adder2 $end
$var wire 1 ' A $end
$var wire 1 % B $end
$var wire 1 ! L $end
$var wire 1 ( H $end
$scope module and_gate $end
$var wire 1 ' A $end
$var wire 1 % B $end
$var wire 1 ( F $end
$var wire 1 . X $end
$upscope $end
$scope module xor_gate $end
$var wire 1 ' A $end
$var wire 1 % B $end
$var wire 1 ! F $end
$var wire 1 / X $end
$var wire 1 0 Y $end
$var wire 1 1 Z $end
$upscope $end
$upscope $end
$scope module half_adder3 $end
$var wire 1 ) A $end
$var wire 1 ( B $end
$var wire 1 " L $end
$var wire 1 & H $end
$scope module and_gate $end
$var wire 1 ) A $end
$var wire 1 ( B $end
$var wire 1 & F $end
$var wire 1 2 X $end
$upscope $end
$scope module xor_gate $end
$var wire 1 ) A $end
$var wire 1 ( B $end
$var wire 1 " F $end
$var wire 1 3 X $end
$var wire 1 4 Y $end
$var wire 1 5 Z $end
$upscope $end
$upscope $end
$upscope $end
$upscope $end
$enddefinitions $end
$comment Show the parameter values. $end
$dumpall
$end
#0
$dumpvars
15
14
13
12
11
10
1/
1.
1-
1,
1+
1*
0)
0(
0'
0&
0%
0$
0#
0"
0!
$end
#10000
1!
01
1%
#20000
00
1!
1'
11
0-
0%
1$
#30000
1"
05
0!
1(
10
0.
0/
11
1%
#40000
0"
15
1!
0(
00
1.
1/
1-
0,
0%
0$
1#
#50000
1"
05
0!
1(
10
0.
0/
11
1%
#60000
15
0!
04
0'
0(
10
1)
1,
1.
1/
0*
0+
1-
0%
1$
#70000
1!
01
1%
#80000
0"
14
0!
0)
11
1*
1+
0%
0$
0#
