components/SELECTOR/SELECTOR_TB.vcd
$date
	Sun May 26 17:59:16 2024
$end
$version
	Icarus Verilog
$end
$timescale
	1ps
$end
$scope module SELECTOR_TB $end
$var wire 8 ! F_TB [7:0] $end
$var reg 1 " A_TB $end
$var reg 8 # B_TB [7:0] $end
$var reg 8 $ C_TB [7:0] $end
$var integer 32 % i [31:0] $end
$var integer 32 & j [31:0] $end
$scope module DUT $end
$var wire 1 " A $end
$var wire 8 ' I0 [7:0] $end
$var wire 8 ( I1 [7:0] $end
$var wire 1 ) nA $end
$var wire 8 * T1 [7:0] $end
$var wire 8 + T0 [7:0] $end
$var wire 8 , F [7:0] $end
$scope module and_gate_0_01 $end
$var wire 1 - B $end
$var wire 1 . F $end
$var wire 1 / X $end
$var wire 1 ) A $end
$upscope $end
$scope module and_gate_0_02 $end
$var wire 1 0 B $end
$var wire 1 1 F $end
$var wire 1 2 X $end
$var wire 1 ) A $end
$upscope $end
$scope module and_gate_0_03 $end
$var wire 1 3 B $end
$var wire 1 4 F $end
$var wire 1 5 X $end
$var wire 1 ) A $end
$upscope $end
$scope module and_gate_0_04 $end
$var wire 1 6 B $end
$var wire 1 7 F $end
$var wire 1 8 X $end
$var wire 1 ) A $end
$upscope $end
$scope module and_gate_0_05 $end
$var wire 1 9 B $end
$var wire 1 : F $end
$var wire 1 ; X $end
$var wire 1 ) A $end
$upscope $end
$scope module and_gate_0_06 $end
$var wire 1 < B $end
$var wire 1 = F $end
$var wire 1 > X $end
$var wire 1 ) A $end
$upscope $end
$scope module and_gate_0_07 $end
$var wire 1 ? B $end
$var wire 1 @ F $end
$var wire 1 A X $end
$var wire 1 ) A $end
$upscope $end
$scope module and_gate_0_08 $end
$var wire 1 B B $end
$var wire 1 C F $end
$var wire 1 D X $end
$var wire 1 ) A $end
$upscope $end
$scope module and_gate_1_01 $end
$var wire 1 " A $end
$var wire 1 E B $end
$var wire 1 F F $end
$var wire 1 G X $end
$upscope $end
$scope module and_gate_1_02 $end
$var wire 1 " A $end
$var wire 1 H B $end
$var wire 1 I F $end
$var wire 1 J X $end
$upscope $end
$scope module and_gate_1_03 $end
$var wire 1 " A $end
$var wire 1 K B $end
$var wire 1 L F $end
$var wire 1 M X $end
$upscope $end
$scope module and_gate_1_04 $end
$var wire 1 " A $end
$var wire 1 N B $end
$var wire 1 O F $end
$var wire 1 P X $end
$upscope $end
$scope module and_gate_1_05 $end
$var wire 1 " A $end
$var wire 1 Q B $end
$var wire 1 R F $end
$var wire 1 S X $end
$upscope $end
$scope module and_gate_1_06 $end
$var wire 1 " A $end
$var wire 1 T B $end
$var wire 1 U F $end
$var wire 1 V X $end
$upscope $end
$scope module and_gate_1_07 $end
$var wire 1 " A $end
$var wire 1 W B $end
$var wire 1 X F $end
$var wire 1 Y X $end
$upscope $end
$scope module and_gate_1_08 $end
$var wire 1 " A $end
$var wire 1 Z B $end
$var wire 1 [ F $end
$var wire 1 \ X $end
$upscope $end
$scope module not_gate $end
$var wire 1 " A $end
$var wire 1 ) F $end
$upscope $end
$scope module or_gate1 $end
$var wire 1 ] A $end
$var wire 1 ^ B $end
$var wire 1 _ F $end
$var wire 1 ` X $end
$var wire 1 a Y $end
$upscope $end
$scope module or_gate2 $end
$var wire 1 b A $end
$var wire 1 c B $end
$var wire 1 d F $end
$var wire 1 e X $end
$var wire 1 f Y $end
$upscope $end
$scope module or_gate3 $end
$var wire 1 g A $end
$var wire 1 h B $end
$var wire 1 i F $end
$var wire 1 j X $end
$var wire 1 k Y $end
$upscope $end
$scope module or_gate4 $end
$var wire 1 l A $end
$var wire 1 m B $end
$var wire 1 n F $end
$var wire 1 o X $end
$var wire 1 p Y $end
$upscope $end
$scope module or_gate5 $end
$var wire 1 q A $end
$var wire 1 r B $end
$var wire 1 s F $end
$var wire 1 t X $end
$var wire 1 u Y $end
$upscope $end
$scope module or_gate6 $end
$var wire 1 v A $end
$var wire 1 w B $end
$var wire 1 x F $end
$var wire 1 y X $end
$var wire 1 z Y $end
$upscope $end
$scope module or_gate7 $end
$var wire 1 { A $end
$var wire 1 | B $end
$var wire 1 } F $end
$var wire 1 ~ X $end
$var wire 1 !" Y $end
$upscope $end
$scope module or_gate8 $end
$var wire 1 "" A $end
$var wire 1 #" B $end
$var wire 1 $" F $end
$var wire 1 %" X $end
$var wire 1 &" Y $end
$upscope $end
$upscope $end
$upscope $end
$enddefinitions $end
$comment Show the parameter values. $end
$dumpall
$end
#0
$dumpvars
1&"
1%"
0$"
0#"
0""
1!"
1~
0}
0|
0{
1z
1y
0x
0w
0v
1u
1t
0s
0r
0q
1p
1o
0n
0m
0l
1k
1j
0i
0h
0g
1f
1e
0d
0c
0b
1a
1`
0_
0^
0]
1\
0[
0Z
1Y
0X
1W
1V
0U
0T
1S
0R
0Q
1P
0O
0N
1M
0L
0K
1J
0I
0H
1G
0F
0E
1D
0C
0B
1A
0@
0?
1>
0=
0<
1;
0:
09
18
07
06
15
04
03
12
01
00
1/
0.
0-
b0 ,
b0 +
b0 *
1)
b1000000 (
b0 '
bx &
b0 %
b0 $
b1000000 #
0"
b0 !
$end
#10000
b1 !
b1 ,
1_
0`
1]
b1 +
1.
0/
1-
b1 $
b1 '
b1 %
#20000
0_
b10 !
b10 ,
1d
1`
0e
0]
1b
0.
b10 +
11
1/
02
0-
10
b10 $
b10 '
b10 %
#30000
b11 !
b11 ,
1_
0`
1]
b11 +
1.
0/
1-
b11 $
b11 '
b11 %
#40000
0_
0d
b100 !
b100 ,
1i
1`
1e
0j
0]
0b
1g
0.
01
b100 +
14
1/
12
05
0-
00
13
b100 $
b100 '
b100 %
#50000
b101 !
b101 ,
1_
0`
1]
b101 +
1.
0/
1-
b101 $
b101 '
b101 %
#60000
0_
b110 !
b110 ,
1d
1`
0e
0]
1b
0.
b110 +
11
1/
02
0-
10
b110 $
b110 '
b110 %
#70000
b111 !
b111 ,
1_
0`
1]
b111 +
1.
0/
1-
b111 $
b111 '
b111 %
#80000
0_
0d
0i
b1000 !
b1000 ,
1n
1`
1e
1j
0o
0]
0b
0g
1l
0.
01
04
b1000 +
17
1/
12
15
08
0-
00
03
16
b1000 $
b1000 '
b1000 %
#90000
b1001 !
b1001 ,
1_
0`
1]
b1001 +
1.
0/
1-
b1001 $
b1001 '
b1001 %
#100000
0_
b1010 !
b1010 ,
1d
1`
0e
0]
1b
0.
b1010 +
11
1/
02
0-
10
b1010 $
b1010 '
b1010 %
#110000
b1011 !
b1011 ,
1_
0`
1]
b1011 +
1.
0/
1-
b1011 $
b1011 '
b1011 %
#120000
0_
0d
b1100 !
b1100 ,
1i
1`
1e
0j
0]
0b
1g
0.
01
b1100 +
14
1/
12
05
0-
00
13
b1100 $
b1100 '
b1100 %
#130000
b1101 !
b1101 ,
1_
0`
1]
b1101 +
1.
0/
1-
b1101 $
b1101 '
b1101 %
#140000
0_
b1110 !
b1110 ,
1d
1`
0e
0]
1b
0.
b1110 +
11
1/
02
0-
10
b1110 $
b1110 '
b1110 %
#150000
b1111 !
b1111 ,
1_
0`
1]
b1111 +
1.
0/
1-
b1111 $
b1111 '
b1111 %
#160000
0_
0d
0i
0n
b10000 !
b10000 ,
1s
1`
1e
1j
1o
0t
0]
0b
0g
0l
1q
0.
01
04
07
b10000 +
1:
1/
12
15
18
0;
0-
00
03
06
19
b10000 $
b10000 '
b10000 %
#170000
b10001 !
b10001 ,
1_
0`
1]
b10001 +
1.
0/
1-
b10001 $
b10001 '
b10001 %
#180000
0_
b10010 !
b10010 ,
1d
1`
0e
0]
1b
0.
b10010 +
11
1/
02
0-
10
b10010 $
b10010 '
b10010 %
#190000
b10011 !
b10011 ,
1_
0`
1]
b10011 +
1.
0/
1-
b10011 $
b10011 '
b10011 %
#200000
0_
0d
b10100 !
b10100 ,
1i
1`
1e
0j
0]
0b
1g
0.
01
b10100 +
14
1/
12
05
0-
00
13
b10100 $
b10100 '
b10100 %
#210000
b10101 !
b10101 ,
1_
0`
1]
b10101 +
1.
0/
1-
b10101 $
b10101 '
b10101 %
#220000
0_
b10110 !
b10110 ,
1d
1`
0e
0]
1b
0.
b10110 +
11
1/
02
0-
10
b10110 $
b10110 '
b10110 %
#230000
b10111 !
b10111 ,
1_
0`
1]
b10111 +
1.
0/
1-
b10111 $
b10111 '
b10111 %
#240000
0_
0d
0i
b11000 !
b11000 ,
1n
1`
1e
1j
0o
0]
0b
0g
1l
0.
01
04
b11000 +
17
1/
12
15
08
0-
00
03
16
b11000 $
b11000 '
b11000 %
#250000
b11001 !
b11001 ,
1_
0`
1]
b11001 +
1.
0/
1-
b11001 $
b11001 '
b11001 %
#260000
0_
b11010 !
b11010 ,
1d
1`
0e
0]
1b
0.
b11010 +
11
1/
02
0-
10
b11010 $
b11010 '
b11010 %
#270000
b11011 !
b11011 ,
1_
0`
1]
b11011 +
1.
0/
1-
b11011 $
b11011 '
b11011 %
#280000
0_
0d
b11100 !
b11100 ,
1i
1`
1e
0j
0]
0b
1g
0.
01
b11100 +
14
1/
12
05
0-
00
13
b11100 $
b11100 '
b11100 %
#290000
b11101 !
b11101 ,
1_
0`
1]
b11101 +
1.
0/
1-
b11101 $
b11101 '
b11101 %
#300000
0_
b11110 !
b11110 ,
1d
1`
0e
0]
1b
0.
b11110 +
11
1/
02
0-
10
b11110 $
b11110 '
b11110 %
#310000
b11111 !
b11111 ,
1_
0`
1]
b11111 +
1.
0/
1-
b11111 $
b11111 '
b11111 %
#320000
0s
0n
0i
0d
0_
b0 !
b0 ,
0}
1t
1o
1j
1e
1`
1!"
0q
0l
0g
0b
0]
0|
0:
07
04
01
b0 +
0.
b0 *
0X
1;
18
15
12
1/
0W
0-
00
03
06
09
1?
1Y
0)
b0 #
b0 (
b0 &
b1000000 $
b1000000 '
1"
b100000 %
#330000
b1 !
b1 ,
1_
0a
1^
b1 *
1F
0G
1E
b1 #
b1 (
b1 &
#340000
0_
b10 !
b10 ,
1d
1a
0f
0^
1c
0F
b10 *
1I
1G
0J
0E
1H
b10 #
b10 (
b10 &
#350000
b11 !
b11 ,
1_
0a
1^
b11 *
1F
0G
1E
b11 #
b11 (
b11 &
#360000
0_
0d
b100 !
b100 ,
1i
1a
1f
0k
0^
0c
1h
0F
0I
b100 *
1L
1G
1J
0M
0E
0H
1K
b100 #
b100 (
b100 &
#370000
b101 !
b101 ,
1_
0a
1^
b101 *
1F
0G
1E
b101 #
b101 (
b101 &
#380000
0_
b110 !
b110 ,
1d
1a
0f
0^
1c
0F
b110 *
1I
1G
0J
0E
1H
b110 #
b110 (
b110 &
#390000
b111 !
b111 ,
1_
0a
1^
b111 *
1F
0G
1E
b111 #
b111 (
b111 &
#400000
0_
0d
0i
b1000 !
b1000 ,
1n
1a
1f
1k
0p
0^
0c
0h
1m
0F
0I
0L
b1000 *
1O
1G
1J
1M
0P
0E
0H
0K
1N
b1000 #
b1000 (
b1000 &
#410000
b1001 !
b1001 ,
1_
0a
1^
b1001 *
1F
0G
1E
b1001 #
b1001 (
b1001 &
#420000
0_
b1010 !
b1010 ,
1d
1a
0f
0^
1c
0F
b1010 *
1I
1G
0J
0E
1H
b1010 #
b1010 (
b1010 &
#430000
b1011 !
b1011 ,
1_
0a
1^
b1011 *
1F
0G
1E
b1011 #
b1011 (
b1011 &
#440000
0_
0d
b1100 !
b1100 ,
1i
1a
1f
0k
0^
0c
1h
0F
0I
b1100 *
1L
1G
1J
0M
0E
0H
1K
b1100 #
b1100 (
b1100 &
#450000
b1101 !
b1101 ,
1_
0a
1^
b1101 *
1F
0G
1E
b1101 #
b1101 (
b1101 &
#460000
0_
b1110 !
b1110 ,
1d
1a
0f
0^
1c
0F
b1110 *
1I
1G
0J
0E
1H
b1110 #
b1110 (
b1110 &
#470000
b1111 !
b1111 ,
1_
0a
1^
b1111 *
1F
0G
1E
b1111 #
b1111 (
b1111 &
#480000
0_
0d
0i
0n
b10000 !
b10000 ,
1s
1a
1f
1k
1p
0u
0^
0c
0h
0m
1r
0F
0I
0L
0O
b10000 *
1R
1G
1J
1M
1P
0S
0E
0H
0K
0N
1Q
b10000 #
b10000 (
b10000 &
#490000
b10001 !
b10001 ,
1_
0a
1^
b10001 *
1F
0G
1E
b10001 #
b10001 (
b10001 &
#500000
0_
b10010 !
b10010 ,
1d
1a
0f
0^
1c
0F
b10010 *
1I
1G
0J
0E
1H
b10010 #
b10010 (
b10010 &
#510000
b10011 !
b10011 ,
1_
0a
1^
b10011 *
1F
0G
1E
b10011 #
b10011 (
b10011 &
#520000
0_
0d
b10100 !
b10100 ,
1i
1a
1f
0k
0^
0c
1h
0F
0I
b10100 *
1L
1G
1J
0M
0E
0H
1K
b10100 #
b10100 (
b10100 &
#530000
b10101 !
b10101 ,
1_
0a
1^
b10101 *
1F
0G
1E
b10101 #
b10101 (
b10101 &
#540000
0_
b10110 !
b10110 ,
1d
1a
0f
0^
1c
0F
b10110 *
1I
1G
0J
0E
1H
b10110 #
b10110 (
b10110 &
#550000
b10111 !
b10111 ,
1_
0a
1^
b10111 *
1F
0G
1E
b10111 #
b10111 (
b10111 &
#560000
0_
0d
0i
b11000 !
b11000 ,
1n
1a
1f
1k
0p
0^
0c
0h
1m
0F
0I
0L
b11000 *
1O
1G
1J
1M
0P
0E
0H
0K
1N
b11000 #
b11000 (
b11000 &
#570000
b11001 !
b11001 ,
1_
0a
1^
b11001 *
1F
0G
1E
b11001 #
b11001 (
b11001 &
#580000
0_
b11010 !
b11010 ,
1d
1a
0f
0^
1c
0F
b11010 *
1I
1G
0J
0E
1H
b11010 #
b11010 (
b11010 &
#590000
b11011 !
b11011 ,
1_
0a
1^
b11011 *
1F
0G
1E
b11011 #
b11011 (
b11011 &
#600000
0_
0d
b11100 !
b11100 ,
1i
1a
1f
0k
0^
0c
1h
0F
0I
b11100 *
1L
1G
1J
0M
0E
0H
1K
b11100 #
b11100 (
b11100 &
#610000
b11101 !
b11101 ,
1_
0a
1^
b11101 *
1F
0G
1E
b11101 #
b11101 (
b11101 &
#620000
0_
b11110 !
b11110 ,
1d
1a
0f
0^
1c
0F
b11110 *
1I
1G
0J
0E
1H
b11110 #
b11110 (
b11110 &
#630000
b11111 !
b11111 ,
1_
0a
1^
b11111 *
1F
0G
1E
b11111 #
b11111 (
b11111 &
#640000
b100000 &
