components/INCREMENT/INCREMENT_TB.vcd
$date
	Sun May 26 17:58:02 2024
$end
$version
	Icarus Verilog
$end
$timescale
	1ps
$end
$scope module INCREMENT_TB $end
$var wire 8 ! F_TB [7:0] $end
$var reg 8 " A_TB [7:0] $end
$var integer 32 # i [31:0] $end
$scope module DUT $end
$var wire 8 $ A [7:0] $end
$var wire 8 % B [7:0] $end
$var wire 1 & C $end
$var wire 8 ' F [7:0] $end
$var wire 1 ( E $end
$scope module adder $end
$var wire 8 ) A [7:0] $end
$var wire 8 * B [7:0] $end
$var wire 1 & C $end
$var wire 7 + S [6:0] $end
$var wire 8 , F [7:0] $end
$var wire 1 ( E $end
$scope module full_adder1 $end
$var wire 1 - A $end
$var wire 1 . B $end
$var wire 1 & C $end
$var wire 1 / Z $end
$var wire 1 0 S0 $end
$var wire 1 1 L $end
$var wire 1 2 H $end
$var wire 1 3 C1 $end
$var wire 1 4 C0 $end
$scope module half_adder1 $end
$var wire 1 - A $end
$var wire 1 . B $end
$var wire 1 0 L $end
$var wire 1 4 H $end
$scope module and_gate $end
$var wire 1 - A $end
$var wire 1 . B $end
$var wire 1 4 F $end
$var wire 1 5 X $end
$upscope $end
$scope module xor_gate $end
$var wire 1 - A $end
$var wire 1 . B $end
$var wire 1 0 F $end
$var wire 1 6 X $end
$var wire 1 7 Y $end
$var wire 1 8 Z $end
$upscope $end
$upscope $end
$scope module half_adder2 $end
$var wire 1 0 A $end
$var wire 1 & B $end
$var wire 1 1 L $end
$var wire 1 3 H $end
$scope module and_gate $end
$var wire 1 0 A $end
$var wire 1 & B $end
$var wire 1 3 F $end
$var wire 1 9 X $end
$upscope $end
$scope module xor_gate $end
$var wire 1 0 A $end
$var wire 1 & B $end
$var wire 1 1 F $end
$var wire 1 : X $end
$var wire 1 ; Y $end
$var wire 1 < Z $end
$upscope $end
$upscope $end
$scope module half_adder3 $end
$var wire 1 4 A $end
$var wire 1 3 B $end
$var wire 1 2 L $end
$var wire 1 / H $end
$scope module and_gate $end
$var wire 1 4 A $end
$var wire 1 3 B $end
$var wire 1 / F $end
$var wire 1 = X $end
$upscope $end
$scope module xor_gate $end
$var wire 1 4 A $end
$var wire 1 3 B $end
$var wire 1 2 F $end
$var wire 1 > X $end
$var wire 1 ? Y $end
$var wire 1 @ Z $end
$upscope $end
$upscope $end
$upscope $end
$scope module full_adder2 $end
$var wire 1 A A $end
$var wire 1 B B $end
$var wire 1 C C $end
$var wire 1 D Z $end
$var wire 1 E S0 $end
$var wire 1 F L $end
$var wire 1 G H $end
$var wire 1 H C1 $end
$var wire 1 I C0 $end
$scope module half_adder1 $end
$var wire 1 A A $end
$var wire 1 B B $end
$var wire 1 E L $end
$var wire 1 I H $end
$scope module and_gate $end
$var wire 1 A A $end
$var wire 1 B B $end
$var wire 1 I F $end
$var wire 1 J X $end
$upscope $end
$scope module xor_gate $end
$var wire 1 A A $end
$var wire 1 B B $end
$var wire 1 E F $end
$var wire 1 K X $end
$var wire 1 L Y $end
$var wire 1 M Z $end
$upscope $end
$upscope $end
$scope module half_adder2 $end
$var wire 1 E A $end
$var wire 1 C B $end
$var wire 1 F L $end
$var wire 1 H H $end
$scope module and_gate $end
$var wire 1 E A $end
$var wire 1 C B $end
$var wire 1 H F $end
$var wire 1 N X $end
$upscope $end
$scope module xor_gate $end
$var wire 1 E A $end
$var wire 1 C B $end
$var wire 1 F F $end
$var wire 1 O X $end
$var wire 1 P Y $end
$var wire 1 Q Z $end
$upscope $end
$upscope $end
$scope module half_adder3 $end
$var wire 1 I A $end
$var wire 1 H B $end
$var wire 1 G L $end
$var wire 1 D H $end
$scope module and_gate $end
$var wire 1 I A $end
$var wire 1 H B $end
$var wire 1 D F $end
$var wire 1 R X $end
$upscope $end
$scope module xor_gate $end
$var wire 1 I A $end
$var wire 1 H B $end
$var wire 1 G F $end
$var wire 1 S X $end
$var wire 1 T Y $end
$var wire 1 U Z $end
$upscope $end
$upscope $end
$upscope $end
$scope module full_adder3 $end
$var wire 1 V A $end
$var wire 1 W B $end
$var wire 1 X C $end
$var wire 1 Y Z $end
$var wire 1 Z S0 $end
$var wire 1 [ L $end
$var wire 1 \ H $end
$var wire 1 ] C1 $end
$var wire 1 ^ C0 $end
$scope module half_adder1 $end
$var wire 1 V A $end
$var wire 1 W B $end
$var wire 1 Z L $end
$var wire 1 ^ H $end
$scope module and_gate $end
$var wire 1 V A $end
$var wire 1 W B $end
$var wire 1 ^ F $end
$var wire 1 _ X $end
$upscope $end
$scope module xor_gate $end
$var wire 1 V A $end
$var wire 1 W B $end
$var wire 1 Z F $end
$var wire 1 ` X $end
$var wire 1 a Y $end
$var wire 1 b Z $end
$upscope $end
$upscope $end
$scope module half_adder2 $end
$var wire 1 Z A $end
$var wire 1 X B $end
$var wire 1 [ L $end
$var wire 1 ] H $end
$scope module and_gate $end
$var wire 1 Z A $end
$var wire 1 X B $end
$var wire 1 ] F $end
$var wire 1 c X $end
$upscope $end
$scope module xor_gate $end
$var wire 1 Z A $end
$var wire 1 X B $end
$var wire 1 [ F $end
$var wire 1 d X $end
$var wire 1 e Y $end
$var wire 1 f Z $end
$upscope $end
$upscope $end
$scope module half_adder3 $end
$var wire 1 ^ A $end
$var wire 1 ] B $end
$var wire 1 \ L $end
$var wire 1 Y H $end
$scope module and_gate $end
$var wire 1 ^ A $end
$var wire 1 ] B $end
$var wire 1 Y F $end
$var wire 1 g X $end
$upscope $end
$scope module xor_gate $end
$var wire 1 ^ A $end
$var wire 1 ] B $end
$var wire 1 \ F $end
$var wire 1 h X $end
$var wire 1 i Y $end
$var wire 1 j Z $end
$upscope $end
$upscope $end
$upscope $end
$scope module full_adder4 $end
$var wire 1 k A $end
$var wire 1 l B $end
$var wire 1 m C $end
$var wire 1 n Z $end
$var wire 1 o S0 $end
$var wire 1 p L $end
$var wire 1 q H $end
$var wire 1 r C1 $end
$var wire 1 s C0 $end
$scope module half_adder1 $end
$var wire 1 k A $end
$var wire 1 l B $end
$var wire 1 o L $end
$var wire 1 s H $end
$scope module and_gate $end
$var wire 1 k A $end
$var wire 1 l B $end
$var wire 1 s F $end
$var wire 1 t X $end
$upscope $end
$scope module xor_gate $end
$var wire 1 k A $end
$var wire 1 l B $end
$var wire 1 o F $end
$var wire 1 u X $end
$var wire 1 v Y $end
$var wire 1 w Z $end
$upscope $end
$upscope $end
$scope module half_adder2 $end
$var wire 1 o A $end
$var wire 1 m B $end
$var wire 1 p L $end
$var wire 1 r H $end
$scope module and_gate $end
$var wire 1 o A $end
$var wire 1 m B $end
$var wire 1 r F $end
$var wire 1 x X $end
$upscope $end
$scope module xor_gate $end
$var wire 1 o A $end
$var wire 1 m B $end
$var wire 1 p F $end
$var wire 1 y X $end
$var wire 1 z Y $end
$var wire 1 { Z $end
$upscope $end
$upscope $end
$scope module half_adder3 $end
$var wire 1 s A $end
$var wire 1 r B $end
$var wire 1 q L $end
$var wire 1 n H $end
$scope module and_gate $end
$var wire 1 s A $end
$var wire 1 r B $end
$var wire 1 n F $end
$var wire 1 | X $end
$upscope $end
$scope module xor_gate $end
$var wire 1 s A $end
$var wire 1 r B $end
$var wire 1 q F $end
$var wire 1 } X $end
$var wire 1 ~ Y $end
$var wire 1 !" Z $end
$upscope $end
$upscope $end
$upscope $end
$scope module full_adder5 $end
$var wire 1 "" A $end
$var wire 1 #" B $end
$var wire 1 $" C $end
$var wire 1 %" Z $end
$var wire 1 &" S0 $end
$var wire 1 '" L $end
$var wire 1 (" H $end
$var wire 1 )" C1 $end
$var wire 1 *" C0 $end
$scope module half_adder1 $end
$var wire 1 "" A $end
$var wire 1 #" B $end
$var wire 1 &" L $end
$var wire 1 *" H $end
$scope module and_gate $end
$var wire 1 "" A $end
$var wire 1 #" B $end
$var wire 1 *" F $end
$var wire 1 +" X $end
$upscope $end
$scope module xor_gate $end
$var wire 1 "" A $end
$var wire 1 #" B $end
$var wire 1 &" F $end
$var wire 1 ," X $end
$var wire 1 -" Y $end
$var wire 1 ." Z $end
$upscope $end
$upscope $end
$scope module half_adder2 $end
$var wire 1 &" A $end
$var wire 1 $" B $end
$var wire 1 '" L $end
$var wire 1 )" H $end
$scope module and_gate $end
$var wire 1 &" A $end
$var wire 1 $" B $end
$var wire 1 )" F $end
$var wire 1 /" X $end
$upscope $end
$scope module xor_gate $end
$var wire 1 &" A $end
$var wire 1 $" B $end
$var wire 1 '" F $end
$var wire 1 0" X $end
$var wire 1 1" Y $end
$var wire 1 2" Z $end
$upscope $end
$upscope $end
$scope module half_adder3 $end
$var wire 1 *" A $end
$var wire 1 )" B $end
$var wire 1 (" L $end
$var wire 1 %" H $end
$scope module and_gate $end
$var wire 1 *" A $end
$var wire 1 )" B $end
$var wire 1 %" F $end
$var wire 1 3" X $end
$upscope $end
$scope module xor_gate $end
$var wire 1 *" A $end
$var wire 1 )" B $end
$var wire 1 (" F $end
$var wire 1 4" X $end
$var wire 1 5" Y $end
$var wire 1 6" Z $end
$upscope $end
$upscope $end
$upscope $end
$scope module full_adder6 $end
$var wire 1 7" A $end
$var wire 1 8" B $end
$var wire 1 9" C $end
$var wire 1 :" Z $end
$var wire 1 ;" S0 $end
$var wire 1 <" L $end
$var wire 1 =" H $end
$var wire 1 >" C1 $end
$var wire 1 ?" C0 $end
$scope module half_adder1 $end
$var wire 1 7" A $end
$var wire 1 8" B $end
$var wire 1 ;" L $end
$var wire 1 ?" H $end
$scope module and_gate $end
$var wire 1 7" A $end
$var wire 1 8" B $end
$var wire 1 ?" F $end
$var wire 1 @" X $end
$upscope $end
$scope module xor_gate $end
$var wire 1 7" A $end
$var wire 1 8" B $end
$var wire 1 ;" F $end
$var wire 1 A" X $end
$var wire 1 B" Y $end
$var wire 1 C" Z $end
$upscope $end
$upscope $end
$scope module half_adder2 $end
$var wire 1 ;" A $end
$var wire 1 9" B $end
$var wire 1 <" L $end
$var wire 1 >" H $end
$scope module and_gate $end
$var wire 1 ;" A $end
$var wire 1 9" B $end
$var wire 1 >" F $end
$var wire 1 D" X $end
$upscope $end
$scope module xor_gate $end
$var wire 1 ;" A $end
$var wire 1 9" B $end
$var wire 1 <" F $end
$var wire 1 E" X $end
$var wire 1 F" Y $end
$var wire 1 G" Z $end
$upscope $end
$upscope $end
$scope module half_adder3 $end
$var wire 1 ?" A $end
$var wire 1 >" B $end
$var wire 1 =" L $end
$var wire 1 :" H $end
$scope module and_gate $end
$var wire 1 ?" A $end
$var wire 1 >" B $end
$var wire 1 :" F $end
$var wire 1 H" X $end
$upscope $end
$scope module xor_gate $end
$var wire 1 ?" A $end
$var wire 1 >" B $end
$var wire 1 =" F $end
$var wire 1 I" X $end
$var wire 1 J" Y $end
$var wire 1 K" Z $end
$upscope $end
$upscope $end
$upscope $end
$scope module full_adder7 $end
$var wire 1 L" A $end
$var wire 1 M" B $end
$var wire 1 N" C $end
$var wire 1 O" Z $end
$var wire 1 P" S0 $end
$var wire 1 Q" L $end
$var wire 1 R" H $end
$var wire 1 S" C1 $end
$var wire 1 T" C0 $end
$scope module half_adder1 $end
$var wire 1 L" A $end
$var wire 1 M" B $end
$var wire 1 P" L $end
$var wire 1 T" H $end
$scope module and_gate $end
$var wire 1 L" A $end
$var wire 1 M" B $end
$var wire 1 T" F $end
$var wire 1 U" X $end
$upscope $end
$scope module xor_gate $end
$var wire 1 L" A $end
$var wire 1 M" B $end
$var wire 1 P" F $end
$var wire 1 V" X $end
$var wire 1 W" Y $end
$var wire 1 X" Z $end
$upscope $end
$upscope $end
$scope module half_adder2 $end
$var wire 1 P" A $end
$var wire 1 N" B $end
$var wire 1 Q" L $end
$var wire 1 S" H $end
$scope module and_gate $end
$var wire 1 P" A $end
$var wire 1 N" B $end
$var wire 1 S" F $end
$var wire 1 Y" X $end
$upscope $end
$scope module xor_gate $end
$var wire 1 P" A $end
$var wire 1 N" B $end
$var wire 1 Q" F $end
$var wire 1 Z" X $end
$var wire 1 [" Y $end
$var wire 1 \" Z $end
$upscope $end
$upscope $end
$scope module half_adder3 $end
$var wire 1 T" A $end
$var wire 1 S" B $end
$var wire 1 R" L $end
$var wire 1 O" H $end
$scope module and_gate $end
$var wire 1 T" A $end
$var wire 1 S" B $end
$var wire 1 O" F $end
$var wire 1 ]" X $end
$upscope $end
$scope module xor_gate $end
$var wire 1 T" A $end
$var wire 1 S" B $end
$var wire 1 R" F $end
$var wire 1 ^" X $end
$var wire 1 _" Y $end
$var wire 1 `" Z $end
$upscope $end
$upscope $end
$upscope $end
$scope module full_adder8 $end
$var wire 1 a" A $end
$var wire 1 b" B $end
$var wire 1 c" C $end
$var wire 1 d" Z $end
$var wire 1 e" S0 $end
$var wire 1 f" L $end
$var wire 1 ( H $end
$var wire 1 g" C1 $end
$var wire 1 h" C0 $end
$scope module half_adder1 $end
$var wire 1 a" A $end
$var wire 1 b" B $end
$var wire 1 e" L $end
$var wire 1 h" H $end
$scope module and_gate $end
$var wire 1 a" A $end
$var wire 1 b" B $end
$var wire 1 h" F $end
$var wire 1 i" X $end
$upscope $end
$scope module xor_gate $end
$var wire 1 a" A $end
$var wire 1 b" B $end
$var wire 1 e" F $end
$var wire 1 j" X $end
$var wire 1 k" Y $end
$var wire 1 l" Z $end
$upscope $end
$upscope $end
$scope module half_adder2 $end
$var wire 1 e" A $end
$var wire 1 c" B $end
$var wire 1 f" L $end
$var wire 1 g" H $end
$scope module and_gate $end
$var wire 1 e" A $end
$var wire 1 c" B $end
$var wire 1 g" F $end
$var wire 1 m" X $end
$upscope $end
$scope module xor_gate $end
$var wire 1 e" A $end
$var wire 1 c" B $end
$var wire 1 f" F $end
$var wire 1 n" X $end
$var wire 1 o" Y $end
$var wire 1 p" Z $end
$upscope $end
$upscope $end
$scope module half_adder3 $end
$var wire 1 h" A $end
$var wire 1 g" B $end
$var wire 1 ( L $end
$var wire 1 d" H $end
$scope module and_gate $end
$var wire 1 h" A $end
$var wire 1 g" B $end
$var wire 1 d" F $end
$var wire 1 q" X $end
$upscope $end
$scope module xor_gate $end
$var wire 1 h" A $end
$var wire 1 g" B $end
$var wire 1 ( F $end
$var wire 1 r" X $end
$var wire 1 s" Y $end
$var wire 1 t" Z $end
$upscope $end
$upscope $end
$upscope $end
$upscope $end
$upscope $end
$upscope $end
$enddefinitions $end
$comment Show the parameter values. $end
$dumpall
$end
#0
$dumpvars
1t"
1s"
1r"
1q"
1p"
1o"
1n"
1m"
1l"
1k"
1j"
1i"
0h"
0g"
0f"
0e"
0d"
0c"
0b"
0a"
1`"
1_"
1^"
1]"
1\"
1["
1Z"
1Y"
1X"
1W"
1V"
1U"
0T"
0S"
0R"
0Q"
0P"
0O"
0N"
0M"
0L"
1K"
1J"
1I"
1H"
1G"
1F"
1E"
1D"
1C"
1B"
1A"
1@"
0?"
0>"
0="
0<"
0;"
0:"
09"
08"
07"
16"
15"
14"
13"
12"
11"
10"
1/"
1."
1-"
1,"
1+"
0*"
0)"
0("
0'"
0&"
0%"
0$"
0#"
0""
1!"
1~
1}
1|
1{
1z
1y
1x
1w
1v
1u
1t
0s
0r
0q
0p
0o
0n
0m
0l
0k
1j
1i
1h
1g
1f
1e
1d
1c
1b
1a
1`
1_
0^
0]
0\
0[
0Z
0Y
0X
0W
0V
1U
1T
1S
1R
1Q
1P
1O
1N
1M
1L
1K
1J
0I
0H
0G
0F
0E
0D
0C
0B
0A
1@
1?
1>
1=
1<
0;
1:
19
08
17
16
15
04
03
02
11
10
0/
1.
0-
b1 ,
b0 +
b1 *
b0 )
0(
b1 '
0&
b1 %
b0 $
b0 #
b0 "
b1 !
$end
#10000
1F
0Q
1C
b10 !
b10 '
b10 ,
01
b1 +
12
1;
0?
00
14
18
05
06
17
1-
b1 "
b1 $
b1 )
b1 #
#20000
0[
1f
0X
0G
0C
11
1U
b11 !
b11 '
b11 ,
1F
b0 +
02
0;
0H
1Q
1?
10
1N
1O
0P
04
08
1E
15
16
0L
0-
1A
b10 "
b10 $
b10 )
b10 #
#30000
1[
0f
1X
1G
0U
0F
1H
1P
0N
0O
1Q
1C
b100 !
b100 '
b100 ,
01
b11 +
12
1;
0?
00
14
18
05
06
17
1-
b11 "
b11 $
b11 )
b11 #
#40000
0p
1{
0X
0m
0G
0\
0C
11
1U
0F
1j
b101 !
b101 '
b101 ,
1[
b0 +
02
0;
0H
1Q
0]
1f
1?
10
1N
1O
1c
1d
0e
04
08
0E
1Z
15
16
1L
0a
0-
0A
1V
b100 "
b100 $
b100 )
b100 #
#50000
1F
0Q
1C
b110 !
b110 '
b110 ,
01
b1 +
12
1;
0?
00
14
18
05
06
17
1-
b101 "
b101 $
b101 )
b101 #
#60000
0p
1{
0m
0\
1j
1[
0]
0e
1c
1d
1f
0X
0G
0C
11
1U
b111 !
b111 '
b111 ,
1F
b0 +
02
0;
0H
1Q
1?
10
1N
1O
0P
04
08
1E
15
16
0L
0-
1A
b110 "
b110 $
b110 )
b110 #
#70000
1p
0{
1m
1\
0j
0[
1]
1e
0c
0d
1f
1X
1G
0U
0F
1H
1P
0N
0O
1Q
1C
b1000 !
b1000 '
b1000 ,
01
b111 +
12
1;
0?
00
14
18
05
06
17
1-
b111 "
b111 $
b111 )
b111 #
#80000
0'"
12"
0X
0m
0$"
0G
0\
0q
0C
11
1U
0F
1j
0[
1!"
b1001 !
b1001 '
b1001 ,
1p
b0 +
02
0;
0H
1Q
0]
1f
0r
1{
1?
10
1N
1O
1c
1d
1x
1y
0z
04
08
0E
0Z
1o
15
16
1L
1a
0v
0-
0A
0V
1k
b1000 "
b1000 $
b1000 )
b1000 #
#90000
1F
0Q
1C
b1010 !
b1010 '
b1010 ,
01
b1 +
12
1;
0?
00
14
18
05
06
17
1-
b1001 "
b1001 $
b1001 )
b1001 #
#100000
0[
1f
0X
0G
0C
11
1U
b1011 !
b1011 '
b1011 ,
1F
b0 +
02
0;
0H
1Q
1?
10
1N
1O
0P
04
08
1E
15
16
0L
0-
1A
b1010 "
b1010 $
b1010 )
b1010 #
#110000
1[
0f
1X
1G
0U
0F
1H
1P
0N
0O
1Q
1C
b1100 !
b1100 '
b1100 ,
01
b11 +
12
1;
0?
00
14
18
05
06
17
1-
b1011 "
b1011 $
b1011 )
b1011 #
#120000
0'"
12"
0$"
0q
1!"
1p
0r
0z
1x
1y
1{
0X
0m
0G
0\
0C
11
1U
0F
1j
b1101 !
b1101 '
b1101 ,
1[
b0 +
02
0;
0H
1Q
0]
1f
1?
10
1N
1O
1c
1d
0e
04
08
0E
1Z
15
16
1L
0a
0-
0A
1V
b1100 "
b1100 $
b1100 )
b1100 #
#130000
1F
0Q
1C
b1110 !
b1110 '
b1110 ,
01
b1 +
12
1;
0?
00
14
18
05
06
17
1-
b1101 "
b1101 $
b1101 )
b1101 #
#140000
0'"
12"
0$"
0q
1!"
1p
0r
0z
1x
1y
1{
0m
0\
1j
1[
0]
0e
1c
1d
1f
0X
0G
0C
11
1U
b1111 !
b1111 '
b1111 ,
1F
b0 +
02
0;
0H
1Q
1?
10
1N
1O
0P
04
08
1E
15
16
0L
0-
1A
b1110 "
b1110 $
b1110 )
b1110 #
#150000
1'"
02"
1$"
1q
0!"
0p
1r
1z
0x
0y
1{
1m
1\
0j
0[
1]
1e
0c
0d
1f
1X
1G
0U
0F
1H
1P
0N
0O
1Q
1C
b10000 !
b10000 '
b10000 ,
01
b1111 +
12
1;
0?
00
14
18
05
06
17
1-
b1111 "
b1111 $
b1111 )
b1111 #
#160000
0<"
1G"
0X
0m
0$"
09"
0G
0\
0q
0("
0C
11
1U
0F
1j
0[
1!"
0p
16"
b10001 !
b10001 '
b10001 ,
1'"
b0 +
02
0;
0H
1Q
0]
1f
0r
1{
0)"
12"
1?
10
1N
1O
1c
1d
1x
1y
1/"
10"
01"
04
08
0E
0Z
0o
1&"
15
16
1L
1a
1v
0-"
0-
0A
0V
0k
1""
b10000 "
b10000 $
b10000 )
b10000 #
#170000
1F
0Q
1C
b10010 !
b10010 '
b10010 ,
01
b1 +
12
1;
0?
00
14
18
05
06
17
1-
b10001 "
b10001 $
b10001 )
b10001 #
#180000
0[
1f
0X
0G
0C
11
1U
b10011 !
b10011 '
b10011 ,
1F
b0 +
02
0;
0H
1Q
1?
10
1N
1O
0P
04
08
1E
15
16
0L
0-
1A
b10010 "
b10010 $
b10010 )
b10010 #
#190000
1[
0f
1X
1G
0U
0F
1H
1P
0N
0O
1Q
1C
b10100 !
b10100 '
b10100 ,
01
b11 +
12
1;
0?
00
14
18
05
06
17
1-
b10011 "
b10011 $
b10011 )
b10011 #
#200000
0p
1{
0X
0m
0G
0\
0C
11
1U
0F
1j
b10101 !
b10101 '
b10101 ,
1[
b0 +
02
0;
0H
1Q
0]
1f
1?
10
1N
1O
1c
1d
0e
04
08
0E
1Z
15
16
1L
0a
0-
0A
1V
b10100 "
b10100 $
b10100 )
b10100 #
#210000
1F
0Q
1C
b10110 !
b10110 '
b10110 ,
01
b1 +
12
1;
0?
00
14
18
05
06
17
1-
b10101 "
b10101 $
b10101 )
b10101 #
#220000
0p
1{
0m
0\
1j
1[
0]
0e
1c
1d
1f
0X
0G
0C
11
1U
b10111 !
b10111 '
b10111 ,
1F
b0 +
02
0;
0H
1Q
1?
10
1N
1O
0P
04
08
1E
15
16
0L
0-
1A
b10110 "
b10110 $
b10110 )
b10110 #
#230000
1p
0{
1m
1\
0j
0[
1]
1e
0c
0d
1f
1X
1G
0U
0F
1H
1P
0N
0O
1Q
1C
b11000 !
b11000 '
b11000 ,
01
b111 +
12
1;
0?
00
14
18
05
06
17
1-
b10111 "
b10111 $
b10111 )
b10111 #
#240000
0<"
1G"
09"
0("
16"
1'"
0)"
01"
1/"
10"
12"
0X
0m
0$"
0G
0\
0q
0C
11
1U
0F
1j
0[
1!"
b11001 !
b11001 '
b11001 ,
1p
b0 +
02
0;
0H
1Q
0]
1f
0r
1{
1?
10
1N
1O
1c
1d
1x
1y
0z
04
08
0E
0Z
1o
15
16
1L
1a
0v
0-
0A
0V
1k
b11000 "
b11000 $
b11000 )
b11000 #
#250000
1F
0Q
1C
b11010 !
b11010 '
b11010 ,
01
b1 +
12
1;
0?
00
14
18
05
06
17
1-
b11001 "
b11001 $
b11001 )
b11001 #
#260000
0[
1f
0X
0G
0C
11
1U
b11011 !
b11011 '
b11011 ,
1F
b0 +
02
0;
0H
1Q
1?
10
1N
1O
0P
04
08
1E
15
16
0L
0-
1A
b11010 "
b11010 $
b11010 )
b11010 #
#270000
1[
0f
1X
1G
0U
0F
1H
1P
0N
0O
1Q
1C
b11100 !
b11100 '
b11100 ,
01
b11 +
12
1;
0?
00
14
18
05
06
17
1-
b11011 "
b11011 $
b11011 )
b11011 #
#280000
0<"
1G"
09"
0("
16"
1'"
0)"
01"
1/"
10"
12"
0$"
0q
1!"
1p
0r
0z
1x
1y
1{
0X
0m
0G
0\
0C
11
1U
0F
1j
b11101 !
b11101 '
b11101 ,
1[
b0 +
02
0;
0H
1Q
0]
1f
1?
10
1N
1O
1c
1d
0e
04
08
0E
1Z
15
16
1L
0a
0-
0A
1V
b11100 "
b11100 $
b11100 )
b11100 #
#290000
1F
0Q
1C
b11110 !
b11110 '
b11110 ,
01
b1 +
12
1;
0?
00
14
18
05
06
17
1-
b11101 "
b11101 $
b11101 )
b11101 #
#300000
0<"
1G"
09"
0("
16"
1'"
0)"
01"
1/"
10"
12"
0$"
0q
1!"
1p
0r
0z
1x
1y
1{
0m
0\
1j
1[
0]
0e
1c
1d
1f
0X
0G
0C
11
1U
b11111 !
b11111 '
b11111 ,
1F
b0 +
02
0;
0H
1Q
1?
10
1N
1O
0P
04
08
1E
15
16
0L
0-
1A
b11110 "
b11110 $
b11110 )
b11110 #
#310000
1<"
0G"
19"
1("
06"
0'"
1)"
11"
0/"
00"
12"
1$"
1q
0!"
0p
1r
1z
0x
0y
1{
1m
1\
0j
0[
1]
1e
0c
0d
1f
1X
1G
0U
0F
1H
1P
0N
0O
1Q
1C
b100000 !
b100000 '
b100000 ,
01
b11111 +
12
1;
0?
00
14
18
05
06
17
1-
b11111 "
b11111 $
b11111 )
b11111 #
#320000
0Q"
1\"
0X
0m
0$"
09"
0N"
0G
0\
0q
0("
0="
0C
11
1U
0F
1j
0[
1!"
0p
16"
0'"
1K"
b100001 !
b100001 '
b100001 ,
1<"
b0 +
02
0;
0H
1Q
0]
1f
0r
1{
0)"
12"
0>"
1G"
1?
10
1N
1O
1c
1d
1x
1y
1/"
10"
1D"
1E"
0F"
04
08
0E
0Z
0o
0&"
1;"
15
16
1L
1a
1v
1-"
0B"
0-
0A
0V
0k
0""
17"
b100000 "
b100000 $
b100000 )
b100000 #
#330000
1F
0Q
1C
b100010 !
b100010 '
b100010 ,
01
b1 +
12
1;
0?
00
14
18
05
06
17
1-
b100001 "
b100001 $
b100001 )
b100001 #
#340000
0[
1f
0X
0G
0C
11
1U
b100011 !
b100011 '
b100011 ,
1F
b0 +
02
0;
0H
1Q
1?
10
1N
1O
0P
04
08
1E
15
16
0L
0-
1A
b100010 "
b100010 $
b100010 )
b100010 #
#350000
1[
0f
1X
1G
0U
0F
1H
1P
0N
0O
1Q
1C
b100100 !
b100100 '
b100100 ,
01
b11 +
12
1;
0?
00
14
18
05
06
17
1-
b100011 "
b100011 $
b100011 )
b100011 #
#360000
0p
1{
0X
0m
0G
0\
0C
11
1U
0F
1j
b100101 !
b100101 '
b100101 ,
1[
b0 +
02
0;
0H
1Q
0]
1f
1?
10
1N
1O
1c
1d
0e
04
08
0E
1Z
15
16
1L
0a
0-
0A
1V
b100100 "
b100100 $
b100100 )
b100100 #
#370000
1F
0Q
1C
b100110 !
b100110 '
b100110 ,
01
b1 +
12
1;
0?
00
14
18
05
06
17
1-
b100101 "
b100101 $
b100101 )
b100101 #
#380000
0p
1{
0m
0\
1j
1[
0]
0e
1c
1d
1f
0X
0G
0C
11
1U
b100111 !
b100111 '
b100111 ,
1F
b0 +
02
0;
0H
1Q
1?
10
1N
1O
0P
04
08
1E
15
16
0L
0-
1A
b100110 "
b100110 $
b100110 )
b100110 #
#390000
1p
0{
1m
1\
0j
0[
1]
1e
0c
0d
1f
1X
1G
0U
0F
1H
1P
0N
0O
1Q
1C
b101000 !
b101000 '
b101000 ,
01
b111 +
12
1;
0?
00
14
18
05
06
17
1-
b100111 "
b100111 $
b100111 )
b100111 #
#400000
0'"
12"
0X
0m
0$"
0G
0\
0q
0C
11
1U
0F
1j
0[
1!"
b101001 !
b101001 '
b101001 ,
1p
b0 +
02
0;
0H
1Q
0]
1f
0r
1{
1?
10
1N
1O
1c
1d
1x
1y
0z
04
08
0E
0Z
1o
15
16
1L
1a
0v
0-
0A
0V
1k
b101000 "
b101000 $
b101000 )
b101000 #
#410000
1F
0Q
1C
b101010 !
b101010 '
b101010 ,
01
b1 +
12
1;
0?
00
14
18
05
06
17
1-
b101001 "
b101001 $
b101001 )
b101001 #
#420000
0[
1f
0X
0G
0C
11
1U
b101011 !
b101011 '
b101011 ,
1F
b0 +
02
0;
0H
1Q
1?
10
1N
1O
0P
04
08
1E
15
16
0L
0-
1A
b101010 "
b101010 $
b101010 )
b101010 #
#430000
1[
0f
1X
1G
0U
0F
1H
1P
0N
0O
1Q
1C
b101100 !
b101100 '
b101100 ,
01
b11 +
12
1;
0?
00
14
18
05
06
17
1-
b101011 "
b101011 $
b101011 )
b101011 #
#440000
0'"
12"
0$"
0q
1!"
1p
0r
0z
1x
1y
1{
0X
0m
0G
0\
0C
11
1U
0F
1j
b101101 !
b101101 '
b101101 ,
1[
b0 +
02
0;
0H
1Q
0]
1f
1?
10
1N
1O
1c
1d
0e
04
08
0E
1Z
15
16
1L
0a
0-
0A
1V
b101100 "
b101100 $
b101100 )
b101100 #
#450000
1F
0Q
1C
b101110 !
b101110 '
b101110 ,
01
b1 +
12
1;
0?
00
14
18
05
06
17
1-
b101101 "
b101101 $
b101101 )
b101101 #
#460000
0'"
12"
0$"
0q
1!"
1p
0r
0z
1x
1y
1{
0m
0\
1j
1[
0]
0e
1c
1d
1f
0X
0G
0C
11
1U
b101111 !
b101111 '
b101111 ,
1F
b0 +
02
0;
0H
1Q
1?
10
1N
1O
0P
04
08
1E
15
16
0L
0-
1A
b101110 "
b101110 $
b101110 )
b101110 #
#470000
1'"
02"
1$"
1q
0!"
0p
1r
1z
0x
0y
1{
1m
1\
0j
0[
1]
1e
0c
0d
1f
1X
1G
0U
0F
1H
1P
0N
0O
1Q
1C
b110000 !
b110000 '
b110000 ,
01
b1111 +
12
1;
0?
00
14
18
05
06
17
1-
b101111 "
b101111 $
b101111 )
b101111 #
#480000
0Q"
1\"
0N"
0="
1K"
1<"
0>"
0F"
1D"
1E"
1G"
0X
0m
0$"
09"
0G
0\
0q
0("
0C
11
1U
0F
1j
0[
1!"
0p
16"
b110001 !
b110001 '
b110001 ,
1'"
b0 +
02
0;
0H
1Q
0]
1f
0r
1{
0)"
12"
1?
10
1N
1O
1c
1d
1x
1y
1/"
10"
01"
04
08
0E
0Z
0o
1&"
15
16
1L
1a
1v
0-"
0-
0A
0V
0k
1""
b110000 "
b110000 $
b110000 )
b110000 #
#490000
1F
0Q
1C
b110010 !
b110010 '
b110010 ,
01
b1 +
12
1;
0?
00
14
18
05
06
17
1-
b110001 "
b110001 $
b110001 )
b110001 #
#500000
0[
1f
0X
0G
0C
11
1U
b110011 !
b110011 '
b110011 ,
1F
b0 +
02
0;
0H
1Q
1?
10
1N
1O
0P
04
08
1E
15
16
0L
0-
1A
b110010 "
b110010 $
b110010 )
b110010 #
#510000
1[
0f
1X
1G
0U
0F
1H
1P
0N
0O
1Q
1C
b110100 !
b110100 '
b110100 ,
01
b11 +
12
1;
0?
00
14
18
05
06
17
1-
b110011 "
b110011 $
b110011 )
b110011 #
