components/MULTI_BIT_ADDER/MULTI_BIT_ADDER_TB.vcd
$date
	Sun May 26 17:57:23 2024
$end
$version
	Icarus Verilog
$end
$timescale
	1ps
$end
$scope module MULTI_BIT_ADDER_TB $end
$var wire 8 ! F_TB [7:0] $end
$var wire 1 " E_TB $end
$var reg 8 # A_TB [7:0] $end
$var reg 8 $ B_TB [7:0] $end
$var reg 1 % C_TB $end
$var integer 32 & i [31:0] $end
$var integer 32 ' j [31:0] $end
$scope module DUT $end
$var wire 8 ( A [7:0] $end
$var wire 8 ) B [7:0] $end
$var wire 1 % C $end
$var wire 7 * S [6:0] $end
$var wire 8 + F [7:0] $end
$var wire 1 " E $end
$scope module full_adder1 $end
$var wire 1 , A $end
$var wire 1 - B $end
$var wire 1 % C $end
$var wire 1 . Z $end
$var wire 1 / S0 $end
$var wire 1 0 L $end
$var wire 1 1 H $end
$var wire 1 2 C1 $end
$var wire 1 3 C0 $end
$scope module half_adder1 $end
$var wire 1 , A $end
$var wire 1 - B $end
$var wire 1 / L $end
$var wire 1 3 H $end
$scope module and_gate $end
$var wire 1 , A $end
$var wire 1 - B $end
$var wire 1 3 F $end
$var wire 1 4 X $end
$upscope $end
$scope module xor_gate $end
$var wire 1 , A $end
$var wire 1 - B $end
$var wire 1 / F $end
$var wire 1 5 X $end
$var wire 1 6 Y $end
$var wire 1 7 Z $end
$upscope $end
$upscope $end
$scope module half_adder2 $end
$var wire 1 / A $end
$var wire 1 % B $end
$var wire 1 0 L $end
$var wire 1 2 H $end
$scope module and_gate $end
$var wire 1 / A $end
$var wire 1 % B $end
$var wire 1 2 F $end
$var wire 1 8 X $end
$upscope $end
$scope module xor_gate $end
$var wire 1 / A $end
$var wire 1 % B $end
$var wire 1 0 F $end
$var wire 1 9 X $end
$var wire 1 : Y $end
$var wire 1 ; Z $end
$upscope $end
$upscope $end
$scope module half_adder3 $end
$var wire 1 3 A $end
$var wire 1 2 B $end
$var wire 1 1 L $end
$var wire 1 . H $end
$scope module and_gate $end
$var wire 1 3 A $end
$var wire 1 2 B $end
$var wire 1 . F $end
$var wire 1 < X $end
$upscope $end
$scope module xor_gate $end
$var wire 1 3 A $end
$var wire 1 2 B $end
$var wire 1 1 F $end
$var wire 1 = X $end
$var wire 1 > Y $end
$var wire 1 ? Z $end
$upscope $end
$upscope $end
$upscope $end
$scope module full_adder2 $end
$var wire 1 @ A $end
$var wire 1 A B $end
$var wire 1 B C $end
$var wire 1 C Z $end
$var wire 1 D S0 $end
$var wire 1 E L $end
$var wire 1 F H $end
$var wire 1 G C1 $end
$var wire 1 H C0 $end
$scope module half_adder1 $end
$var wire 1 @ A $end
$var wire 1 A B $end
$var wire 1 D L $end
$var wire 1 H H $end
$scope module and_gate $end
$var wire 1 @ A $end
$var wire 1 A B $end
$var wire 1 H F $end
$var wire 1 I X $end
$upscope $end
$scope module xor_gate $end
$var wire 1 @ A $end
$var wire 1 A B $end
$var wire 1 D F $end
$var wire 1 J X $end
$var wire 1 K Y $end
$var wire 1 L Z $end
$upscope $end
$upscope $end
$scope module half_adder2 $end
$var wire 1 D A $end
$var wire 1 B B $end
$var wire 1 E L $end
$var wire 1 G H $end
$scope module and_gate $end
$var wire 1 D A $end
$var wire 1 B B $end
$var wire 1 G F $end
$var wire 1 M X $end
$upscope $end
$scope module xor_gate $end
$var wire 1 D A $end
$var wire 1 B B $end
$var wire 1 E F $end
$var wire 1 N X $end
$var wire 1 O Y $end
$var wire 1 P Z $end
$upscope $end
$upscope $end
$scope module half_adder3 $end
$var wire 1 H A $end
$var wire 1 G B $end
$var wire 1 F L $end
$var wire 1 C H $end
$scope module and_gate $end
$var wire 1 H A $end
$var wire 1 G B $end
$var wire 1 C F $end
$var wire 1 Q X $end
$upscope $end
$scope module xor_gate $end
$var wire 1 H A $end
$var wire 1 G B $end
$var wire 1 F F $end
$var wire 1 R X $end
$var wire 1 S Y $end
$var wire 1 T Z $end
$upscope $end
$upscope $end
$upscope $end
$scope module full_adder3 $end
$var wire 1 U A $end
$var wire 1 V B $end
$var wire 1 W C $end
$var wire 1 X Z $end
$var wire 1 Y S0 $end
$var wire 1 Z L $end
$var wire 1 [ H $end
$var wire 1 \ C1 $end
$var wire 1 ] C0 $end
$scope module half_adder1 $end
$var wire 1 U A $end
$var wire 1 V B $end
$var wire 1 Y L $end
$var wire 1 ] H $end
$scope module and_gate $end
$var wire 1 U A $end
$var wire 1 V B $end
$var wire 1 ] F $end
$var wire 1 ^ X $end
$upscope $end
$scope module xor_gate $end
$var wire 1 U A $end
$var wire 1 V B $end
$var wire 1 Y F $end
$var wire 1 _ X $end
$var wire 1 ` Y $end
$var wire 1 a Z $end
$upscope $end
$upscope $end
$scope module half_adder2 $end
$var wire 1 Y A $end
$var wire 1 W B $end
$var wire 1 Z L $end
$var wire 1 \ H $end
$scope module and_gate $end
$var wire 1 Y A $end
$var wire 1 W B $end
$var wire 1 \ F $end
$var wire 1 b X $end
$upscope $end
$scope module xor_gate $end
$var wire 1 Y A $end
$var wire 1 W B $end
$var wire 1 Z F $end
$var wire 1 c X $end
$var wire 1 d Y $end
$var wire 1 e Z $end
$upscope $end
$upscope $end
$scope module half_adder3 $end
$var wire 1 ] A $end
$var wire 1 \ B $end
$var wire 1 [ L $end
$var wire 1 X H $end
$scope module and_gate $end
$var wire 1 ] A $end
$var wire 1 \ B $end
$var wire 1 X F $end
$var wire 1 f X $end
$upscope $end
$scope module xor_gate $end
$var wire 1 ] A $end
$var wire 1 \ B $end
$var wire 1 [ F $end
$var wire 1 g X $end
$var wire 1 h Y $end
$var wire 1 i Z $end
$upscope $end
$upscope $end
$upscope $end
$scope module full_adder4 $end
$var wire 1 j A $end
$var wire 1 k B $end
$var wire 1 l C $end
$var wire 1 m Z $end
$var wire 1 n S0 $end
$var wire 1 o L $end
$var wire 1 p H $end
$var wire 1 q C1 $end
$var wire 1 r C0 $end
$scope module half_adder1 $end
$var wire 1 j A $end
$var wire 1 k B $end
$var wire 1 n L $end
$var wire 1 r H $end
$scope module and_gate $end
$var wire 1 j A $end
$var wire 1 k B $end
$var wire 1 r F $end
$var wire 1 s X $end
$upscope $end
$scope module xor_gate $end
$var wire 1 j A $end
$var wire 1 k B $end
$var wire 1 n F $end
$var wire 1 t X $end
$var wire 1 u Y $end
$var wire 1 v Z $end
$upscope $end
$upscope $end
$scope module half_adder2 $end
$var wire 1 n A $end
$var wire 1 l B $end
$var wire 1 o L $end
$var wire 1 q H $end
$scope module and_gate $end
$var wire 1 n A $end
$var wire 1 l B $end
$var wire 1 q F $end
$var wire 1 w X $end
$upscope $end
$scope module xor_gate $end
$var wire 1 n A $end
$var wire 1 l B $end
$var wire 1 o F $end
$var wire 1 x X $end
$var wire 1 y Y $end
$var wire 1 z Z $end
$upscope $end
$upscope $end
$scope module half_adder3 $end
$var wire 1 r A $end
$var wire 1 q B $end
$var wire 1 p L $end
$var wire 1 m H $end
$scope module and_gate $end
$var wire 1 r A $end
$var wire 1 q B $end
$var wire 1 m F $end
$var wire 1 { X $end
$upscope $end
$scope module xor_gate $end
$var wire 1 r A $end
$var wire 1 q B $end
$var wire 1 p F $end
$var wire 1 | X $end
$var wire 1 } Y $end
$var wire 1 ~ Z $end
$upscope $end
$upscope $end
$upscope $end
$scope module full_adder5 $end
$var wire 1 !" A $end
$var wire 1 "" B $end
$var wire 1 #" C $end
$var wire 1 $" Z $end
$var wire 1 %" S0 $end
$var wire 1 &" L $end
$var wire 1 '" H $end
$var wire 1 (" C1 $end
$var wire 1 )" C0 $end
$scope module half_adder1 $end
$var wire 1 !" A $end
$var wire 1 "" B $end
$var wire 1 %" L $end
$var wire 1 )" H $end
$scope module and_gate $end
$var wire 1 !" A $end
$var wire 1 "" B $end
$var wire 1 )" F $end
$var wire 1 *" X $end
$upscope $end
$scope module xor_gate $end
$var wire 1 !" A $end
$var wire 1 "" B $end
$var wire 1 %" F $end
$var wire 1 +" X $end
$var wire 1 ," Y $end
$var wire 1 -" Z $end
$upscope $end
$upscope $end
$scope module half_adder2 $end
$var wire 1 %" A $end
$var wire 1 #" B $end
$var wire 1 &" L $end
$var wire 1 (" H $end
$scope module and_gate $end
$var wire 1 %" A $end
$var wire 1 #" B $end
$var wire 1 (" F $end
$var wire 1 ." X $end
$upscope $end
$scope module xor_gate $end
$var wire 1 %" A $end
$var wire 1 #" B $end
$var wire 1 &" F $end
$var wire 1 /" X $end
$var wire 1 0" Y $end
$var wire 1 1" Z $end
$upscope $end
$upscope $end
$scope module half_adder3 $end
$var wire 1 )" A $end
$var wire 1 (" B $end
$var wire 1 '" L $end
$var wire 1 $" H $end
$scope module and_gate $end
$var wire 1 )" A $end
$var wire 1 (" B $end
$var wire 1 $" F $end
$var wire 1 2" X $end
$upscope $end
$scope module xor_gate $end
$var wire 1 )" A $end
$var wire 1 (" B $end
$var wire 1 '" F $end
$var wire 1 3" X $end
$var wire 1 4" Y $end
$var wire 1 5" Z $end
$upscope $end
$upscope $end
$upscope $end
$scope module full_adder6 $end
$var wire 1 6" A $end
$var wire 1 7" B $end
$var wire 1 8" C $end
$var wire 1 9" Z $end
$var wire 1 :" S0 $end
$var wire 1 ;" L $end
$var wire 1 <" H $end
$var wire 1 =" C1 $end
$var wire 1 >" C0 $end
$scope module half_adder1 $end
$var wire 1 6" A $end
$var wire 1 7" B $end
$var wire 1 :" L $end
$var wire 1 >" H $end
$scope module and_gate $end
$var wire 1 6" A $end
$var wire 1 7" B $end
$var wire 1 >" F $end
$var wire 1 ?" X $end
$upscope $end
$scope module xor_gate $end
$var wire 1 6" A $end
$var wire 1 7" B $end
$var wire 1 :" F $end
$var wire 1 @" X $end
$var wire 1 A" Y $end
$var wire 1 B" Z $end
$upscope $end
$upscope $end
$scope module half_adder2 $end
$var wire 1 :" A $end
$var wire 1 8" B $end
$var wire 1 ;" L $end
$var wire 1 =" H $end
$scope module and_gate $end
$var wire 1 :" A $end
$var wire 1 8" B $end
$var wire 1 =" F $end
$var wire 1 C" X $end
$upscope $end
$scope module xor_gate $end
$var wire 1 :" A $end
$var wire 1 8" B $end
$var wire 1 ;" F $end
$var wire 1 D" X $end
$var wire 1 E" Y $end
$var wire 1 F" Z $end
$upscope $end
$upscope $end
$scope module half_adder3 $end
$var wire 1 >" A $end
$var wire 1 =" B $end
$var wire 1 <" L $end
$var wire 1 9" H $end
$scope module and_gate $end
$var wire 1 >" A $end
$var wire 1 =" B $end
$var wire 1 9" F $end
$var wire 1 G" X $end
$upscope $end
$scope module xor_gate $end
$var wire 1 >" A $end
$var wire 1 =" B $end
$var wire 1 <" F $end
$var wire 1 H" X $end
$var wire 1 I" Y $end
$var wire 1 J" Z $end
$upscope $end
$upscope $end
$upscope $end
$scope module full_adder7 $end
$var wire 1 K" A $end
$var wire 1 L" B $end
$var wire 1 M" C $end
$var wire 1 N" Z $end
$var wire 1 O" S0 $end
$var wire 1 P" L $end
$var wire 1 Q" H $end
$var wire 1 R" C1 $end
$var wire 1 S" C0 $end
$scope module half_adder1 $end
$var wire 1 K" A $end
$var wire 1 L" B $end
$var wire 1 O" L $end
$var wire 1 S" H $end
$scope module and_gate $end
$var wire 1 K" A $end
$var wire 1 L" B $end
$var wire 1 S" F $end
$var wire 1 T" X $end
$upscope $end
$scope module xor_gate $end
$var wire 1 K" A $end
$var wire 1 L" B $end
$var wire 1 O" F $end
$var wire 1 U" X $end
$var wire 1 V" Y $end
$var wire 1 W" Z $end
$upscope $end
$upscope $end
$scope module half_adder2 $end
$var wire 1 O" A $end
$var wire 1 M" B $end
$var wire 1 P" L $end
$var wire 1 R" H $end
$scope module and_gate $end
$var wire 1 O" A $end
$var wire 1 M" B $end
$var wire 1 R" F $end
$var wire 1 X" X $end
$upscope $end
$scope module xor_gate $end
$var wire 1 O" A $end
$var wire 1 M" B $end
$var wire 1 P" F $end
$var wire 1 Y" X $end
$var wire 1 Z" Y $end
$var wire 1 [" Z $end
$upscope $end
$upscope $end
$scope module half_adder3 $end
$var wire 1 S" A $end
$var wire 1 R" B $end
$var wire 1 Q" L $end
$var wire 1 N" H $end
$scope module and_gate $end
$var wire 1 S" A $end
$var wire 1 R" B $end
$var wire 1 N" F $end
$var wire 1 \" X $end
$upscope $end
$scope module xor_gate $end
$var wire 1 S" A $end
$var wire 1 R" B $end
$var wire 1 Q" F $end
$var wire 1 ]" X $end
$var wire 1 ^" Y $end
$var wire 1 _" Z $end
$upscope $end
$upscope $end
$upscope $end
$scope module full_adder8 $end
$var wire 1 `" A $end
$var wire 1 a" B $end
$var wire 1 b" C $end
$var wire 1 c" Z $end
$var wire 1 d" S0 $end
$var wire 1 e" L $end
$var wire 1 " H $end
$var wire 1 f" C1 $end
$var wire 1 g" C0 $end
$scope module half_adder1 $end
$var wire 1 `" A $end
$var wire 1 a" B $end
$var wire 1 d" L $end
$var wire 1 g" H $end
$scope module and_gate $end
$var wire 1 `" A $end
$var wire 1 a" B $end
$var wire 1 g" F $end
$var wire 1 h" X $end
$upscope $end
$scope module xor_gate $end
$var wire 1 `" A $end
$var wire 1 a" B $end
$var wire 1 d" F $end
$var wire 1 i" X $end
$var wire 1 j" Y $end
$var wire 1 k" Z $end
$upscope $end
$upscope $end
$scope module half_adder2 $end
$var wire 1 d" A $end
$var wire 1 b" B $end
$var wire 1 e" L $end
$var wire 1 f" H $end
$scope module and_gate $end
$var wire 1 d" A $end
$var wire 1 b" B $end
$var wire 1 f" F $end
$var wire 1 l" X $end
$upscope $end
$scope module xor_gate $end
$var wire 1 d" A $end
$var wire 1 b" B $end
$var wire 1 e" F $end
$var wire 1 m" X $end
$var wire 1 n" Y $end
$var wire 1 o" Z $end
$upscope $end
$upscope $end
$scope module half_adder3 $end
$var wire 1 g" A $end
$var wire 1 f" B $end
$var wire 1 " L $end
$var wire 1 c" H $end
$scope module and_gate $end
$var wire 1 g" A $end
$var wire 1 f" B $end
$var wire 1 c" F $end
$var wire 1 p" X $end
$upscope $end
$scope module xor_gate $end
$var wire 1 g" A $end
$var wire 1 f" B $end
$var wire 1 " F $end
$var wire 1 q" X $end
$var wire 1 r" Y $end
$var wire 1 s" Z $end
$upscope $end
$upscope $end
$upscope $end
$upscope $end
$upscope $end
$enddefinitions $end
$comment Show the parameter values. $end
$dumpall
$end
#0
$dumpvars
1s"
1r"
1q"
1p"
1o"
1n"
1m"
1l"
1k"
1j"
1i"
1h"
0g"
0f"
0e"
0d"
0c"
0b"
0a"
0`"
1_"
1^"
1]"
1\"
1["
1Z"
1Y"
1X"
1W"
1V"
1U"
1T"
0S"
0R"
0Q"
0P"
0O"
0N"
0M"
0L"
0K"
1J"
1I"
1H"
1G"
1F"
1E"
1D"
1C"
1B"
1A"
1@"
1?"
0>"
0="
0<"
0;"
0:"
09"
08"
07"
06"
15"
14"
13"
12"
11"
10"
1/"
1."
1-"
1,"
1+"
1*"
0)"
0("
0'"
0&"
0%"
0$"
0#"
0""
0!"
1~
1}
1|
1{
1z
1y
1x
1w
1v
1u
1t
1s
0r
0q
0p
0o
0n
0m
0l
0k
0j
1i
1h
1g
1f
1e
1d
1c
1b
1a
1`
1_
1^
0]
0\
0[
0Z
0Y
0X
0W
0V
0U
1T
1S
1R
1Q
1P
1O
1N
1M
1L
1K
1J
1I
0H
0G
0F
0E
0D
0C
0B
0A
0@
1?
1>
1=
1<
1;
1:
19
18
17
16
15
14
03
02
01
00
0/
0.
0-
0,
b0 +
b0 *
b0 )
b0 (
b0 '
b0 &
0%
b0 $
b0 #
0"
b0 !
$end
#10000
b1 !
b1 +
10
0;
1%
#20000
0:
1/
b1 !
b1 +
10
07
1;
1-
0%
b1 $
b1 )
b1 '
#30000
1E
0P
1B
b1 *
11
0?
b10 !
b10 +
00
12
1:
08
09
1;
1%
#40000
0Z
1e
0W
0F
1T
1E
0B
0G
1P
b0 *
01
1M
1N
0O
1?
b10 !
b10 +
00
0/
1D
02
1:
17
0L
18
19
0-
1A
0%
b10 $
b10 )
b10 '
#50000
b11 !
b11 +
10
0;
1%
#60000
0:
1/
b11 !
b11 +
10
07
1;
1-
0%
b11 $
b11 )
b11 '
#70000
1Z
0e
1W
1F
0T
0E
1G
1O
0M
0N
1P
1B
b11 *
11
0?
b100 !
b100 +
00
12
1:
08
09
1;
1%
#80000
0o
1z
0W
0l
0F
0[
1T
0E
1i
1Z
0B
0G
1P
0\
1e
b0 *
01
1M
1N
1b
1c
0d
1?
b100 !
b100 +
00
0/
0D
1Y
02
1:
17
1L
0a
18
19
0-
0A
1V
0%
b100 $
b100 )
b100 '
#90000
b101 !
b101 +
10
0;
1%
#100000
0:
1/
b101 !
b101 +
10
07
1;
1-
0%
b101 $
b101 )
b101 '
#110000
1E
0P
1B
b1 *
11
0?
b110 !
b110 +
00
12
1:
08
09
1;
1%
#120000
0o
1z
0l
0[
1i
1Z
0\
0d
1b
1c
1e
0W
0F
1T
1E
0B
0G
1P
b0 *
01
1M
1N
0O
1?
b110 !
b110 +
00
0/
1D
02
1:
17
0L
18
19
0-
1A
0%
b110 $
b110 )
b110 '
#130000
b111 !
b111 +
10
0;
1%
#140000
0:
1/
b111 !
b111 +
10
07
1;
1-
0%
b111 $
b111 )
b111 '
#150000
1o
0z
1l
1[
0i
0Z
1\
1d
0b
0c
1e
1W
1F
0T
0E
1G
1O
0M
0N
1P
1B
b111 *
11
0?
b1000 !
b1000 +
00
12
1:
08
09
1;
1%
#160000
0&"
11"
0W
0l
0#"
0F
0[
0p
1T
0E
1i
0Z
1~
1o
0B
0G
1P
0\
1e
0q
1z
b0 *
01
1M
1N
1b
1c
1w
1x
0y
1?
b1000 !
b1000 +
00
0/
0D
0Y
1n
02
1:
17
1L
1a
0v
18
19
0-
0A
0V
1k
0%
b1000 $
b1000 )
b1000 '
#170000
b1001 !
b1001 +
10
0;
1%
#180000
0:
1/
b1001 !
b1001 +
10
07
1;
1-
0%
b1001 $
b1001 )
b1001 '
#190000
1E
0P
1B
b1 *
11
0?
b1010 !
b1010 +
00
12
1:
08
09
1;
1%
#200000
0Z
1e
0W
0F
1T
1E
0B
0G
1P
b0 *
01
1M
1N
0O
1?
b1010 !
b1010 +
00
0/
1D
02
1:
17
0L
18
19
0-
1A
0%
b1010 $
b1010 )
b1010 '
#210000
b1011 !
b1011 +
10
0;
1%
#220000
0:
1/
b1011 !
b1011 +
10
07
1;
1-
0%
b1011 $
b1011 )
b1011 '
#230000
1Z
0e
1W
1F
0T
0E
1G
1O
0M
0N
1P
1B
b11 *
11
0?
b1100 !
b1100 +
00
12
1:
08
09
1;
1%
#240000
0&"
11"
0#"
0p
1~
1o
0q
0y
1w
1x
1z
0W
0l
0F
0[
1T
0E
1i
1Z
0B
0G
1P
0\
1e
b0 *
01
1M
1N
1b
1c
0d
1?
b1100 !
b1100 +
00
0/
0D
1Y
02
1:
17
1L
0a
18
19
0-
0A
1V
0%
b1100 $
b1100 )
b1100 '
#250000
b1101 !
b1101 +
10
0;
1%
#260000
0:
1/
b1101 !
b1101 +
10
07
1;
1-
0%
b1101 $
b1101 )
b1101 '
#270000
1E
0P
1B
b1 *
11
0?
b1110 !
b1110 +
00
12
1:
08
09
1;
1%
#280000
0&"
11"
0#"
0p
1~
1o
0q
0y
1w
1x
1z
0l
0[
1i
1Z
0\
0d
1b
1c
1e
0W
0F
1T
1E
0B
0G
1P
b0 *
01
1M
1N
0O
1?
b1110 !
b1110 +
00
0/
1D
02
1:
17
0L
18
19
0-
1A
0%
b1110 $
b1110 )
b1110 '
#290000
b1111 !
b1111 +
10
0;
1%
#300000
0:
1/
b1111 !
b1111 +
10
07
1;
1-
0%
b1111 $
b1111 )
b1111 '
#310000
1&"
01"
1#"
1p
0~
0o
1q
1y
0w
0x
1z
1l
1[
0i
0Z
1\
1d
0b
0c
1e
1W
1F
0T
0E
1G
1O
0M
0N
1P
1B
b1111 *
11
0?
b10000 !
b10000 +
00
12
1:
08
09
1;
1%
#320000
0;"
1F"
0W
0l
0#"
08"
0F
0[
0p
0'"
1T
0E
1i
0Z
1~
0o
15"
1&"
0B
0G
1P
0\
1e
0q
1z
0("
11"
b0 *
01
1M
1N
1b
1c
1w
1x
1."
1/"
00"
1?
b10000 !
b10000 +
00
0/
0D
0Y
0n
1%"
02
1:
17
1L
1a
1v
0-"
18
19
0-
0A
0V
0k
1""
0%
b10000 $
b10000 )
b10000 '
#330000
b10001 !
b10001 +
10
0;
1%
#340000
0:
1/
b10001 !
b10001 +
10
07
1;
1-
0%
b10001 $
b10001 )
b10001 '
#350000
1E
0P
1B
b1 *
11
0?
b10010 !
b10010 +
00
12
1:
08
09
1;
1%
#360000
0Z
1e
0W
0F
1T
1E
0B
0G
1P
b0 *
01
1M
1N
0O
1?
b10010 !
b10010 +
00
0/
1D
02
1:
17
0L
18
19
0-
1A
0%
b10010 $
b10010 )
b10010 '
#370000
b10011 !
b10011 +
10
0;
1%
#380000
0:
1/
b10011 !
b10011 +
10
07
1;
1-
0%
b10011 $
b10011 )
b10011 '
#390000
1Z
0e
1W
1F
0T
0E
1G
1O
0M
0N
1P
1B
b11 *
11
0?
b10100 !
b10100 +
00
12
1:
08
09
1;
1%
#400000
0o
1z
0W
0l
0F
0[
1T
0E
1i
1Z
0B
0G
1P
0\
1e
b0 *
01
1M
1N
1b
1c
0d
1?
b10100 !
b10100 +
00
0/
0D
1Y
02
1:
17
1L
0a
18
19
0-
0A
1V
0%
b10100 $
b10100 )
b10100 '
#410000
b10101 !
b10101 +
10
0;
1%
#420000
0:
1/
b10101 !
b10101 +
10
07
1;
1-
0%
b10101 $
b10101 )
b10101 '
#430000
1E
0P
1B
b1 *
11
0?
b10110 !
b10110 +
00
12
1:
08
09
1;
1%
#440000
0o
1z
0l
0[
1i
1Z
0\
0d
1b
1c
1e
0W
0F
1T
1E
0B
0G
1P
b0 *
01
1M
1N
0O
1?
b10110 !
b10110 +
00
0/
1D
02
1:
17
0L
18
19
0-
1A
0%
b10110 $
b10110 )
b10110 '
#450000
b10111 !
b10111 +
10
0;
1%
#460000
0:
1/
b10111 !
b10111 +
10
07
1;
1-
0%
b10111 $
b10111 )
b10111 '
#470000
1o
0z
1l
1[
0i
0Z
1\
1d
0b
0c
1e
1W
1F
0T
0E
1G
1O
0M
0N
1P
1B
b111 *
11
0?
b11000 !
b11000 +
00
12
1:
08
09
1;
1%
#480000
0;"
1F"
08"
0'"
15"
1&"
0("
00"
1."
1/"
11"
0W
0l
0#"
0F
0[
0p
1T
0E
1i
0Z
1~
1o
0B
0G
1P
0\
1e
0q
1z
b0 *
01
1M
1N
1b
1c
1w
1x
0y
1?
b11000 !
b11000 +
00
0/
0D
0Y
1n
02
1:
17
1L
1a
0v
18
19
0-
0A
0V
1k
0%
b11000 $
b11000 )
b11000 '
#490000
b11001 !
b11001 +
10
0;
1%
#500000
0:
1/
b11001 !
b11001 +
10
07
1;
1-
0%
b11001 $
b11001 )
b11001 '
#510000
1E
0P
1B
b1 *
11
0?
b11010 !
b11010 +
00
12
1:
08
09
1;
1%
#520000
0Z
1e
0W
0F
1T
1E
0B
0G
1P
b0 *
01
1M
1N
0O
1?
b11010 !
b11010 +
00
0/
1D
02
1:
17
0L
18
19
0-
1A
0%
b11010 $
b11010 )
b11010 '
#530000
b11011 !
b11011 +
10
0;
1%
#540000
0:
1/
b11011 !
b11011 +
10
07
1;
1-
0%
b11011 $
b11011 )
b11011 '
#550000
1Z
0e
1W
1F
0T
0E
1G
1O
0M
0N
1P
1B
b11 *
11
0?
b11100 !
b11100 +
00
12
1:
08
09
1;
1%
#560000
0;"
1F"
08"
0'"
15"
1&"
0("
00"
1."
1/"
11"
0#"
0p
1~
1o
0q
0y
1w
1x
1z
0W
0l
0F
0[
1T
0E
1i
1Z
0B
0G
1P
0\
1e
b0 *
01
1M
1N
1b
1c
0d
1?
b11100 !
b11100 +
00
0/
0D
1Y
02
1:
17
1L
0a
18
19
0-
0A
1V
0%
b11100 $
b11100 )
b11100 '
#570000
b11101 !
b11101 +
10
0;
1%
#580000
0:
1/
b11101 !
b11101 +
10
07
1;
1-
0%
b11101 $
b11101 )
b11101 '
#590000
1E
0P
1B
b1 *
11
0?
b11110 !
b11110 +
00
12
1:
08
09
1;
1%
#600000
0;"
1F"
08"
0'"
15"
1&"
0("
00"
1."
1/"
11"
0#"
0p
1~
1o
0q
0y
1w
1x
1z
0l
0[
1i
1Z
0\
0d
1b
1c
1e
0W
0F
1T
1E
0B
0G
1P
b0 *
01
1M
1N
0O
1?
b11110 !
b11110 +
00
0/
1D
02
1:
17
0L
18
19
0-
1A
0%
b11110 $
b11110 )
b11110 '
#610000
b11111 !
b11111 +
10
0;
1%
#620000
0:
1/
b11111 !
b11111 +
10
07
1;
1-
0%
b11111 $
b11111 )
b11111 '
#630000
1;"
0F"
18"
1'"
05"
0&"
1("
10"
0."
0/"
11"
1#"
1p
0~
0o
1q
1y
0w
0x
1z
1l
1[
0i
0Z
1\
1d
0b
0c
1e
1W
1F
0T
0E
1G
1O
0M
0N
1P
1B
b11111 *
11
0?
b100000 !
b100000 +
00
12
1:
08
09
1;
1%
#640000
0;"
1F"
0W
0l
0#"
08"
0F
0[
0p
0'"
1T
0E
1i
0Z
1~
0o
15"
0&"
0B
0G
1P
0\
1e
0q
1z
0("
11"
b0 *
01
1M
1N
1b
1c
1w
1x
1."
1/"
1?
b1 !
b1 +
10
0D
0Y
0n
0%"
02
0:
17
1L
1a
1v
1-"
06
18
19
0-
0A
0V
0k
0""
1,
0%
b0 $
b0 )
b1 #
b1 (
b1 &
b0 '
#650000
1E
0P
1B
b1 *
11
0?
b10 !
b10 +
00
12
1:
08
09
1;
1%
#660000
0>
0/
1?
b10 !
b10 +
00
13
16
02
1:
04
05
17
18
19
1-
0%
b1 $
b1 )
b1 '
#670000
b11 !
b11 +
10
0;
1%
#680000
0Z
1e
0W
0F
0B
1T
1E
b0 *
01
0:
0G
1P
1>
1/
1M
1N
0O
03
06
1D
b11 !
b11 +
10
14
15
0L
1;
0-
1A
0%
b10 $
b10 )
b10 '
#690000
1Z
0e
1W
1F
0T
0E
1G
1O
0M
0N
1P
1B
b11 *
11
0?
b100 !
b100 +
00
12
1:
08
09
1;
1%
#700000
0>
0/
1?
b100 !
b100 +
00
13
16
02
1:
04
05
17
18
19
1-
0%
b11 $
b11 )
b11 '
#710000
b101 !
b101 +
10
0;
1%
#720000
0o
1z
0W
0l
0F
0[
0B
1T
0E
1i
1Z
b0 *
01
0:
0G
1P
0\
1e
1>
1/
1M
1N
1b
1c
0d
03
06
0D
1Y
b101 !
b101 +
10
14
15
1L
0a
1;
0-
0A
1V
0%
b100 $
b100 )
b100 '
#730000
1E
0P
1B
b1 *
11
0?
b110 !
b110 +
00
12
1:
08
09
1;
1%
#740000
0>
0/
1?
b110 !
b110 +
00
13
16
02
1:
04
05
17
18
19
1-
0%
b101 $
b101 )
b101 '
#750000
b111 !
b111 +
10
0;
1%
#760000
0o
1z
0l
0[
1i
1Z
0\
0d
1b
1c
1e
0W
0F
0B
1T
1E
b0 *
01
0:
0G
1P
1>
1/
1M
1N
0O
03
06
1D
b111 !
b111 +
10
14
15
0L
1;
0-
1A
0%
b110 $
b110 )
b110 '
#770000
1o
0z
1l
1[
0i
0Z
1\
1d
0b
0c
1e
1W
1F
0T
0E
1G
1O
0M
0N
1P
1B
b111 *
11
0?
b1000 !
b1000 +
00
12
1:
08
09
1;
1%
#780000
0>
0/
1?
b1000 !
b1000 +
00
13
16
02
1:
04
05
17
18
19
1-
0%
b111 $
b111 )
b111 '
#790000
b1001 !
b1001 +
10
0;
1%
#800000
0&"
11"
0W
0l
0#"
0F
0[
0p
0B
1T
0E
1i
0Z
1~
1o
b0 *
01
0:
0G
1P
0\
1e
0q
1z
1>
1/
1M
1N
1b
1c
1w
1x
0y
03
06
0D
0Y
1n
b1001 !
b1001 +
10
14
15
1L
1a
0v
1;
0-
0A
0V
1k
0%
b1000 $
b1000 )
b1000 '
#810000
1E
0P
1B
b1 *
11
0?
b1010 !
b1010 +
00
12
1:
08
09
1;
1%
#820000
0>
0/
1?
b1010 !
b1010 +
00
13
16
02
1:
04
05
17
18
19
1-
0%
b1001 $
b1001 )
b1001 '
#830000
b1011 !
b1011 +
10
0;
1%
#840000
0Z
1e
0W
0F
0B
1T
1E
b0 *
01
0:
0G
1P
1>
1/
1M
1N
0O
03
06
1D
b1011 !
b1011 +
10
14
15
0L
1;
0-
1A
0%
b1010 $
b1010 )
b1010 '
#850000
1Z
0e
1W
1F
0T
0E
1G
1O
0M
0N
1P
1B
b11 *
11
0?
b1100 !
b1100 +
00
12
1:
08
09
1;
1%
#860000
0>
0/
1?
b1100 !
b1100 +
00
13
16
02
1:
04
05
17
18
19
1-
0%
b1011 $
b1011 )
b1011 '
#870000
b1101 !
b1101 +
10
0;
1%
#880000
0&"
11"
0#"
0p
1~
1o
0q
0y
1w
1x
1z
0W
0l
0F
0[
0B
1T
0E
1i
1Z
b0 *
01
0:
0G
1P
0\
1e
1>
1/
1M
1N
1b
1c
0d
03
06
0D
1Y
b1101 !
b1101 +
10
14
15
1L
0a
1;
0-
0A
1V
0%
b1100 $
b1100 )
b1100 '
#890000
1E
0P
1B
b1 *
11
0?
b1110 !
b1110 +
00
12
1:
08
09
1;
1%
#900000
0>
0/
1?
b1110 !
b1110 +
00
13
16
02
1:
04
05
17
18
19
1-
0%
b1101 $
b1101 )
b1101 '
#910000
b1111 !
b1111 +
10
0;
1%
