components/INVERT/INVERT_TB.vcd
$date
	Sun May 26 17:58:35 2024
$end
$version
	Icarus Verilog
$end
$timescale
	1ps
$end
$scope module INVERT_TB $end
$var wire 8 ! F_TB [7:0] $end
$var reg 8 " A_TB [7:0] $end
$var integer 32 # i [31:0] $end
$scope module DUT $end
$var wire 8 $ A [7:0] $end
$var wire 8 % F [7:0] $end
$scope module not_gate1 $end
$var wire 1 & A $end
$var wire 1 ' F $end
$upscope $end
$scope module not_gate2 $end
$var wire 1 ( A $end
$var wire 1 ) F $end
$upscope $end
$scope module not_gate3 $end
$var wire 1 * A $end
$var wire 1 + F $end
$upscope $end
$scope module not_gate4 $end
$var wire 1 , A $end
$var wire 1 - F $end
$upscope $end
$scope module not_gate5 $end
$var wire 1 . A $end
$var wire 1 / F $end
$upscope $end
$scope module not_gate6 $end
$var wire 1 0 A $end
$var wire 1 1 F $end
$upscope $end
$scope module not_gate7 $end
$var wire 1 2 A $end
$var wire 1 3 F $end
$upscope $end
$scope module not_gate8 $end
$var wire 1 4 A $end
$var wire 1 5 F $end
$upscope $end
$upscope $end
$upscope $end
$enddefinitions $end
$comment Show the parameter values. $end
$dumpall
$end
#0
$dumpvars
15
04
13
02
11
00
1/
0.
1-
0,
1+
0*
1)
0(
1'
0&
b11111111 %
b0 $
b0 #
b0 "
b11111111 !
$end
#10000
b11111110 !
b11111110 %
0'
1&
b1 "
b1 $
b1 #
#20000
1'
b11111101 !
b11111101 %
0)
0&
1(
b10 "
b10 $
b10 #
#30000
b11111100 !
b11111100 %
0'
1&
b11 "
b11 $
b11 #
#40000
1'
1)
b11111011 !
b11111011 %
0+
0&
0(
1*
b100 "
b100 $
b100 #
#50000
b11111010 !
b11111010 %
0'
1&
b101 "
b101 $
b101 #
#60000
1'
b11111001 !
b11111001 %
0)
0&
1(
b110 "
b110 $
b110 #
#70000
b11111000 !
b11111000 %
0'
1&
b111 "
b111 $
b111 #
#80000
1'
1)
1+
b11110111 !
b11110111 %
0-
0&
0(
0*
1,
b1000 "
b1000 $
b1000 #
#90000
b11110110 !
b11110110 %
0'
1&
b1001 "
b1001 $
b1001 #
#100000
1'
b11110101 !
b11110101 %
0)
0&
1(
b1010 "
b1010 $
b1010 #
#110000
b11110100 !
b11110100 %
0'
1&
b1011 "
b1011 $
b1011 #
#120000
1'
1)
b11110011 !
b11110011 %
0+
0&
0(
1*
b1100 "
b1100 $
b1100 #
#130000
b11110010 !
b11110010 %
0'
1&
b1101 "
b1101 $
b1101 #
#140000
1'
b11110001 !
b11110001 %
0)
0&
1(
b1110 "
b1110 $
b1110 #
#150000
b11110000 !
b11110000 %
0'
1&
b1111 "
b1111 $
b1111 #
#160000
1'
1)
1+
1-
b11101111 !
b11101111 %
0/
0&
0(
0*
0,
1.
b10000 "
b10000 $
b10000 #
#170000
b11101110 !
b11101110 %
0'
1&
b10001 "
b10001 $
b10001 #
#180000
1'
b11101101 !
b11101101 %
0)
0&
1(
b10010 "
b10010 $
b10010 #
#190000
b11101100 !
b11101100 %
0'
1&
b10011 "
b10011 $
b10011 #
#200000
1'
1)
b11101011 !
b11101011 %
0+
0&
0(
1*
b10100 "
b10100 $
b10100 #
#210000
b11101010 !
b11101010 %
0'
1&
b10101 "
b10101 $
b10101 #
#220000
1'
b11101001 !
b11101001 %
0)
0&
1(
b10110 "
b10110 $
b10110 #
#230000
b11101000 !
b11101000 %
0'
1&
b10111 "
b10111 $
b10111 #
#240000
1'
1)
1+
b11100111 !
b11100111 %
0-
0&
0(
0*
1,
b11000 "
b11000 $
b11000 #
#250000
b11100110 !
b11100110 %
0'
1&
b11001 "
b11001 $
b11001 #
#260000
1'
b11100101 !
b11100101 %
0)
0&
1(
b11010 "
b11010 $
b11010 #
#270000
b11100100 !
b11100100 %
0'
1&
b11011 "
b11011 $
b11011 #
#280000
1'
1)
b11100011 !
b11100011 %
0+
0&
0(
1*
b11100 "
b11100 $
b11100 #
#290000
b11100010 !
b11100010 %
0'
1&
b11101 "
b11101 $
b11101 #
#300000
1'
b11100001 !
b11100001 %
0)
0&
1(
b11110 "
b11110 $
b11110 #
#310000
b11100000 !
b11100000 %
0'
1&
b11111 "
b11111 $
b11111 #
#320000
b100000 #
