structural/waveforms/EQUAL_ZERO_TB.vcd
$date
	Sun Jun  2 17:57:23 2024
$end
$version
	Icarus Verilog
$end
$timescale
	1ps
$end
$scope module EQUAL_ZERO_TB $end
$var wire 1 ! F_TB $end
$var reg 8 " A_TB [7:0] $end
$var integer 32 # i [31:0] $end
$scope module DUT $end
$var wire 8 $ A [7:0] $end
$var wire 1 % X7 $end
$var wire 1 & X6 $end
$var wire 1 ' X5 $end
$var wire 1 ( X4 $end
$var wire 1 ) X3 $end
$var wire 1 * X2 $end
$var wire 1 + X1 $end
$var wire 1 ! F $end
$scope module not_gate1 $end
$var wire 1 ! F $end
$var wire 1 % A $end
$upscope $end
$scope module or_gate01 $end
$var wire 1 , A $end
$var wire 1 - B $end
$var wire 1 + F $end
$var wire 1 . X $end
$var wire 1 / Y $end
$upscope $end
$scope module or_gate02 $end
$var wire 1 0 A $end
$var wire 1 1 B $end
$var wire 1 * F $end
$var wire 1 2 X $end
$var wire 1 3 Y $end
$upscope $end
$scope module or_gate03 $end
$var wire 1 4 A $end
$var wire 1 5 B $end
$var wire 1 ) F $end
$var wire 1 6 X $end
$var wire 1 7 Y $end
$upscope $end
$scope module or_gate04 $end
$var wire 1 8 A $end
$var wire 1 9 B $end
$var wire 1 ( F $end
$var wire 1 : X $end
$var wire 1 ; Y $end
$upscope $end
$scope module or_gate09 $end
$var wire 1 + A $end
$var wire 1 * B $end
$var wire 1 ' F $end
$var wire 1 < X $end
$var wire 1 = Y $end
$upscope $end
$scope module or_gate10 $end
$var wire 1 ) A $end
$var wire 1 ( B $end
$var wire 1 & F $end
$var wire 1 > X $end
$var wire 1 ? Y $end
$upscope $end
$scope module or_gate13 $end
$var wire 1 ' A $end
$var wire 1 & B $end
$var wire 1 % F $end
$var wire 1 @ X $end
$var wire 1 A Y $end
$upscope $end
$upscope $end
$upscope $end
$enddefinitions $end
$comment Show the parameter values. $end
$dumpall
$end
#0
$dumpvars
1A
1@
1?
1>
1=
1<
1;
1:
09
08
17
16
05
04
13
12
01
00
1/
1.
0-
0,
0+
0*
0)
0(
0'
0&
0%
b0 $
b0 #
b0 "
1!
$end
#10000
0!
1%
0@
1'
0<
1+
0.
1,
b1 "
b1 $
b1 #
#20000
1.
0/
0,
1-
b10 "
b10 $
b10 #
#30000
0.
1,
b11 "
b11 $
b11 #
#40000
1<
0=
0+
1*
1.
1/
02
0,
0-
10
b100 "
b100 $
b100 #
#50000
0<
1+
0.
1,
b101 "
b101 $
b101 #
#60000
1.
0/
0,
1-
b110 "
b110 $
b110 #
#70000
0.
1,
b111 "
b111 $
b111 #
#80000
1<
0+
1.
1/
12
03
0,
0-
00
11
b1000 "
b1000 $
b1000 #
#90000
0<
1+
0.
1,
b1001 "
b1001 $
b1001 #
#100000
1.
0/
0,
1-
b1010 "
b1010 $
b1010 #
#110000
0.
1,
b1011 "
b1011 $
b1011 #
#120000
1<
0+
1.
1/
02
0,
0-
10
b1100 "
b1100 $
b1100 #
#130000
0<
1+
0.
1,
b1101 "
b1101 $
b1101 #
#140000
1.
0/
0,
1-
b1110 "
b1110 $
b1110 #
#150000
0.
1,
b1111 "
b1111 $
b1111 #
#160000
1@
0A
0'
1&
1<
1=
0>
0+
0*
1)
1.
1/
12
13
06
0,
0-
00
01
14
b10000 "
b10000 $
b10000 #
#170000
0@
1'
0<
1+
0.
1,
b10001 "
b10001 $
b10001 #
#180000
1.
0/
0,
1-
b10010 "
b10010 $
b10010 #
#190000
0.
1,
b10011 "
b10011 $
b10011 #
#200000
1<
0=
0+
1*
1.
1/
02
0,
0-
10
b10100 "
b10100 $
b10100 #
#210000
0<
1+
0.
1,
b10101 "
b10101 $
b10101 #
#220000
1.
0/
0,
1-
b10110 "
b10110 $
b10110 #
#230000
0.
1,
b10111 "
b10111 $
b10111 #
#240000
1<
0+
1.
1/
12
03
0,
0-
00
11
b11000 "
b11000 $
b11000 #
#250000
0<
1+
0.
1,
b11001 "
b11001 $
b11001 #
#260000
1.
0/
0,
1-
b11010 "
b11010 $
b11010 #
#270000
0.
1,
b11011 "
b11011 $
b11011 #
#280000
1<
0+
1.
1/
02
0,
0-
10
b11100 "
b11100 $
b11100 #
#290000
0<
1+
0.
1,
b11101 "
b11101 $
b11101 #
#300000
1.
0/
0,
1-
b11110 "
b11110 $
b11110 #
#310000
0.
1,
b11111 "
b11111 $
b11111 #
#320000
1@
0'
1<
1=
0+
0*
1.
1/
12
13
16
07
0,
0-
00
01
04
15
b100000 "
b100000 $
b100000 #
#330000
0@
1'
0<
1+
0.
1,
b100001 "
b100001 $
b100001 #
#340000
1.
0/
0,
1-
b100010 "
b100010 $
b100010 #
#350000
0.
1,
b100011 "
b100011 $
b100011 #
#360000
1<
0=
0+
1*
1.
1/
02
0,
0-
10
b100100 "
b100100 $
b100100 #
#370000
0<
1+
0.
1,
b100101 "
b100101 $
b100101 #
#380000
1.
0/
0,
1-
b100110 "
b100110 $
b100110 #
#390000
0.
1,
b100111 "
b100111 $
b100111 #
#400000
1<
0+
1.
1/
12
03
0,
0-
00
11
b101000 "
b101000 $
b101000 #
#410000
0<
1+
0.
1,
b101001 "
b101001 $
b101001 #
#420000
1.
0/
0,
1-
b101010 "
b101010 $
b101010 #
#430000
0.
1,
b101011 "
b101011 $
b101011 #
#440000
1<
0+
1.
1/
02
0,
0-
10
b101100 "
b101100 $
b101100 #
#450000
0<
1+
0.
1,
b101101 "
b101101 $
b101101 #
#460000
1.
0/
0,
1-
b101110 "
b101110 $
b101110 #
#470000
0.
1,
b101111 "
b101111 $
b101111 #
#480000
1@
0'
1<
1=
0+
0*
1.
1/
12
13
06
0,
0-
00
01
14
b110000 "
b110000 $
b110000 #
#490000
0@
1'
0<
1+
0.
1,
b110001 "
b110001 $
b110001 #
#500000
1.
0/
0,
1-
b110010 "
b110010 $
b110010 #
#510000
0.
1,
b110011 "
b110011 $
b110011 #
#520000
1<
0=
0+
1*
1.
1/
02
0,
0-
10
b110100 "
b110100 $
b110100 #
#530000
0<
1+
0.
1,
b110101 "
b110101 $
b110101 #
#540000
1.
0/
0,
1-
b110110 "
b110110 $
b110110 #
#550000
0.
1,
b110111 "
b110111 $
b110111 #
#560000
1<
0+
1.
1/
12
03
0,
0-
00
11
b111000 "
b111000 $
b111000 #
#570000
0<
1+
0.
1,
b111001 "
b111001 $
b111001 #
#580000
1.
0/
0,
1-
b111010 "
b111010 $
b111010 #
#590000
0.
1,
b111011 "
b111011 $
b111011 #
#600000
1<
0+
1.
1/
02
0,
0-
10
b111100 "
b111100 $
b111100 #
#610000
0<
1+
0.
1,
b111101 "
b111101 $
b111101 #
#620000
1.
0/
0,
1-
b111110 "
b111110 $
b111110 #
#630000
0.
1,
b111111 "
b111111 $
b111111 #
#640000
b1000000 #
